<svg version="1.1" xmlns="http://www.w3.org/2000/svg" viewBox="0 0 749.0966613769531 490" width="749.0966613769531" height="490">
  <!-- svg-source:excalidraw -->
  
  <defs>
    <style class="style-fonts">
      @font-face {
        font-family: "Virgil";
        src: url("https://excalidraw.com/Virgil.woff2");
      }
      @font-face {
        font-family: "Cascadia";
        src: url("https://excalidraw.com/Cascadia.woff2");
      }
      @font-face {
        font-family: "Assistant";
        src: url("https://excalidraw.com/Assistant-Regular.woff2");
      }
    </style>
    
  </defs>
  <rect x="0" y="0" width="749.0966613769531" height="490" fill="#ffffff"></rect><g stroke-linecap="round" transform="translate(105.52666625976559 48) rotate(0 219 14.5)"><path d="M7.25 0 C171.37 -1.21, 333.24 -0.93, 430.75 0 M7.25 0 C157.72 1.97, 307.86 1.46, 430.75 0 M430.75 0 C434.34 -0.6, 436.87 3.32, 438 7.25 M430.75 0 C436.05 0.7, 439.99 0.54, 438 7.25 M438 7.25 C438.7 11.5, 439.14 18.09, 438 21.75 M438 7.25 C437.47 10, 438.32 14.18, 438 21.75 M438 21.75 C436.12 28.01, 436.09 27.12, 430.75 29 M438 21.75 C435.81 26.19, 437.65 29.63, 430.75 29 M430.75 29 C308.25 31.48, 185.84 30.26, 7.25 29 M430.75 29 C314.43 28.11, 198.11 27.88, 7.25 29 M7.25 29 C4.34 30.36, 1.29 28.27, 0 21.75 M7.25 29 C0.65 29.44, 1.69 24.43, 0 21.75 M0 21.75 C0.17 17.76, -0.79 10.17, 0 7.25 M0 21.75 C0.69 17.15, -0.5 12.74, 0 7.25 M0 7.25 C1.55 2.95, 3.95 1.24, 7.25 0 M0 7.25 C0.35 1.52, 1.8 0.96, 7.25 0" stroke="#1e1e1e" stroke-width="2" fill="none"></path></g><g stroke-linecap="round" transform="translate(107.52666625976559 77) rotate(0 16 14.5)"><path d="M7.25 0 C12.68 0.53, 17.65 -1.16, 24.75 0 M7.25 0 C11.27 -0.79, 14.75 0.46, 24.75 0 M24.75 0 C28.11 0.54, 31.25 1.11, 32 7.25 M24.75 0 C28.27 1.34, 33.79 2.34, 32 7.25 M32 7.25 C31.92 12.23, 32.72 15.76, 32 21.75 M32 7.25 C32.32 12.52, 32.12 17.2, 32 21.75 M32 21.75 C33.35 25.52, 28.92 27.49, 24.75 29 M32 21.75 C30.38 24.71, 29.47 30.41, 24.75 29 M24.75 29 C18.79 30.47, 10.87 28.56, 7.25 29 M24.75 29 C20.07 28.47, 16.35 29.31, 7.25 29 M7.25 29 C2.19 28.15, 0.59 26.25, 0 21.75 M7.25 29 C4.62 28.33, 1.88 25.68, 0 21.75 M0 21.75 C0.64 18.58, 0.98 12.74, 0 7.25 M0 21.75 C-0.41 19.25, 0.27 15.21, 0 7.25 M0 7.25 C0.81 3.3, 1.39 -1.77, 7.25 0 M0 7.25 C-0.86 1.38, 3.69 2.27, 7.25 0" stroke="#1e1e1e" stroke-width="2" fill="none"></path></g><g stroke-linecap="round" transform="translate(107.52666625976559 414.5) rotate(0 16 14.5)"><path d="M7.25 0 C12.62 1.21, 19.83 -0.76, 24.75 0 M7.25 0 C14.1 0.51, 19.8 -0.65, 24.75 0 M24.75 0 C28.83 -0.9, 33.11 4.39, 32 7.25 M24.75 0 C29.85 -1.3, 33.23 1.01, 32 7.25 M32 7.25 C33.27 12.22, 31.63 17.59, 32 21.75 M32 7.25 C32.17 12.22, 31.99 16.18, 32 21.75 M32 21.75 C30.98 26.57, 28.75 29.89, 24.75 29 M32 21.75 C31.71 27.54, 27.56 27.84, 24.75 29 M24.75 29 C21.64 29.29, 17.03 28.73, 7.25 29 M24.75 29 C19.41 28.32, 13.03 28.88, 7.25 29 M7.25 29 C3.41 27.92, 0.65 27.67, 0 21.75 M7.25 29 C0.34 29.81, 0.8 25.01, 0 21.75 M0 21.75 C-0.14 17.32, -1.1 14.36, 0 7.25 M0 21.75 C0.47 16.11, -0.12 11.8, 0 7.25 M0 7.25 C-1.87 3.91, 2.28 -0.05, 7.25 0 M0 7.25 C0.95 0.32, 0.3 -2.09, 7.25 0" stroke="#1e1e1e" stroke-width="2" fill="none"></path></g><g stroke-linecap="round" transform="translate(107.52666625976559 167.5) rotate(0 16 14.5)"><path d="M7.25 0 C14.99 0.98, 19 0.78, 24.75 0 M7.25 0 C12.95 -0.24, 19.79 1.02, 24.75 0 M24.75 0 C29.82 -1.13, 33.07 1.2, 32 7.25 M24.75 0 C31.04 -0.86, 32.26 4.52, 32 7.25 M32 7.25 C32.36 11.47, 31.5 15.68, 32 21.75 M32 7.25 C31.63 12.04, 31.69 17.17, 32 21.75 M32 21.75 C31.75 27.41, 27.82 27.99, 24.75 29 M32 21.75 C30.7 28.4, 30.88 30.51, 24.75 29 M24.75 29 C19.89 28.45, 15.44 29.94, 7.25 29 M24.75 29 C21.6 28.47, 17.88 29.42, 7.25 29 M7.25 29 C0.61 29.7, 0.7 25.21, 0 21.75 M7.25 29 C1.82 30.43, -1.6 26.51, 0 21.75 M0 21.75 C0.96 17.93, -0.55 14.93, 0 7.25 M0 21.75 C-0.65 18.81, -0.03 14.76, 0 7.25 M0 7.25 C0.82 0.59, 0.58 -1.81, 7.25 0 M0 7.25 C-1.4 0.15, 2.21 -0.83, 7.25 0" stroke="#1e1e1e" stroke-width="2" fill="none"></path></g><g stroke-linecap="round" transform="translate(107.52666625976559 106.5) rotate(0 16 14.5)"><path d="M7.25 0 C14.18 -0.97, 18.01 -0.73, 24.75 0 M7.25 0 C11.81 -0.67, 16.64 -0.71, 24.75 0 M24.75 0 C30.85 -0.75, 32.23 4.24, 32 7.25 M24.75 0 C29.12 -0.5, 31.69 3.04, 32 7.25 M32 7.25 C32.4 11.71, 30.83 15.54, 32 21.75 M32 7.25 C31.85 11.89, 31.3 15.57, 32 21.75 M32 21.75 C30.87 28.16, 30.71 30.31, 24.75 29 M32 21.75 C32.25 27.64, 29.11 29.76, 24.75 29 M24.75 29 C18.34 28.97, 14.72 29.96, 7.25 29 M24.75 29 C19.65 29.4, 16.45 28.5, 7.25 29 M7.25 29 C1.9 30.24, -1.39 26.52, 0 21.75 M7.25 29 C1.69 27.4, 0.9 27.94, 0 21.75 M0 21.75 C-0.8 17.1, 0.99 11.55, 0 7.25 M0 21.75 C0.31 15.65, -0.66 10.23, 0 7.25 M0 7.25 C-1.22 0.45, 2.23 -0.72, 7.25 0 M0 7.25 C1.31 0.69, 4.53 -1.39, 7.25 0" stroke="#1e1e1e" stroke-width="2" fill="none"></path></g><g stroke-linecap="round" transform="translate(106.52666625976559 196.5) rotate(0 16 14.5)"><path d="M7.25 0 C10.81 1.03, 17.68 0.27, 24.75 0 M7.25 0 C12.06 -0.22, 15.87 0.91, 24.75 0 M24.75 0 C29.18 -0.44, 31.73 2.96, 32 7.25 M24.75 0 C29.84 -0.74, 32.5 3.13, 32 7.25 M32 7.25 C31.88 10.94, 32.53 15.65, 32 21.75 M32 7.25 C31.46 12.77, 32.28 17.63, 32 21.75 M32 21.75 C32.21 27.5, 29.17 29.66, 24.75 29 M32 21.75 C31.33 28.64, 30.87 26.81, 24.75 29 M24.75 29 C18.68 29.66, 15.46 27.5, 7.25 29 M24.75 29 C18.66 29.42, 12.42 28.85, 7.25 29 M7.25 29 C1.79 27.61, 0.78 27.77, 0 21.75 M7.25 29 C2.53 27.96, 1.52 25.21, 0 21.75 M0 21.75 C0.99 17.53, -0.13 14.11, 0 7.25 M0 21.75 C-0.31 18.01, 0.07 15.44, 0 7.25 M0 7.25 C1.14 0.92, 4.26 -1.2, 7.25 0 M0 7.25 C0.88 3.87, 3.55 0.62, 7.25 0" stroke="#1e1e1e" stroke-width="2" fill="none"></path></g><g stroke-linecap="round" transform="translate(107.52666625976559 137.5) rotate(0 16 14.5)"><path d="M7.25 0 C12.48 0.91, 18.62 1.09, 24.75 0 M7.25 0 C11.67 -0.35, 16.32 0.08, 24.75 0 M24.75 0 C29.81 -0.64, 32.43 3.04, 32 7.25 M24.75 0 C29.49 -1.78, 30.83 2.4, 32 7.25 M32 7.25 C32.67 9.72, 31.33 13.93, 32 21.75 M32 7.25 C32.16 13.08, 31.93 18.48, 32 21.75 M32 21.75 C31.42 28.37, 30.7 27.09, 24.75 29 M32 21.75 C31.83 25.85, 30.72 27.76, 24.75 29 M24.75 29 C19.54 29.45, 11.91 28.39, 7.25 29 M24.75 29 C18.14 28.38, 12.41 29.51, 7.25 29 M7.25 29 C2.52 28.1, 1.32 25.39, 0 21.75 M7.25 29 C2.05 30.47, -2.15 28.3, 0 21.75 M0 21.75 C-1.32 16.16, -1.31 12.36, 0 7.25 M0 21.75 C0.43 18.28, 0.68 15.47, 0 7.25 M0 7.25 C0.77 3.68, 3.4 0.54, 7.25 0 M0 7.25 C-1.96 2.72, 4.43 0.66, 7.25 0" stroke="#1e1e1e" stroke-width="2" fill="none"></path></g><g stroke-linecap="round" transform="translate(107.52666625976559 49) rotate(0 16.5 197.5)"><path d="M8.25 0 C12.28 0.32, 17.02 0.81, 24.75 0 M8.25 0 C13.28 -0.5, 17.77 -0.52, 24.75 0 M24.75 0 C28.27 0.84, 32.82 4.65, 33 8.25 M24.75 0 C30.39 -1.06, 34.22 3.84, 33 8.25 M33 8.25 C31.66 112.87, 31.01 216.26, 33 386.75 M33 8.25 C34.19 149.55, 34.74 291.4, 33 386.75 M33 386.75 C33.71 392.18, 29.77 396.78, 24.75 395 M33 386.75 C34.37 393.74, 31.89 395.81, 24.75 395 M24.75 395 C19 395.82, 14.85 395.67, 8.25 395 M24.75 395 C19.88 395.02, 13.22 395.65, 8.25 395 M8.25 395 C4.29 396.34, -0.42 393.65, 0 386.75 M8.25 395 C3.56 395.62, -1.51 390.16, 0 386.75 M0 386.75 C-3.1 253.61, -1.15 118.54, 0 8.25 M0 386.75 C-2.28 274.88, -1.43 163.81, 0 8.25 M0 8.25 C-0.27 2.82, 3.94 -0.98, 8.25 0 M0 8.25 C-0.81 3.78, 0.94 2.02, 8.25 0" stroke="#1e1e1e" stroke-width="2" fill="none"></path></g><g stroke-linecap="round" transform="translate(143.5266662597656 76.5) rotate(0 16 14.5)"><path d="M7.25 0 C12.63 -1.52, 19.21 1.03, 24.75 0 M7.25 0 C10.99 -0.25, 14.99 0.13, 24.75 0 M24.75 0 C29.78 -1.02, 32.74 0.47, 32 7.25 M24.75 0 C29.38 2.28, 32.34 0.22, 32 7.25 M32 7.25 C33.3 13.32, 32.13 15.87, 32 21.75 M32 7.25 C32.66 11.41, 32.21 14.3, 32 21.75 M32 21.75 C31.85 27.63, 27.96 29.86, 24.75 29 M32 21.75 C30.51 25.04, 29.89 29.52, 24.75 29 M24.75 29 C18.12 29.12, 13.56 29.98, 7.25 29 M24.75 29 C19.23 29.82, 14.91 29.16, 7.25 29 M7.25 29 C1.59 28.54, -1.12 26.62, 0 21.75 M7.25 29 C3 27.32, 0.65 25.7, 0 21.75 M0 21.75 C-1.16 18.96, -1.13 16.62, 0 7.25 M0 21.75 C0.13 18.65, 0.14 15.07, 0 7.25 M0 7.25 C-0.94 0.71, 2.5 -0.29, 7.25 0 M0 7.25 C1.74 3.05, 4.07 -1.54, 7.25 0" stroke="#1e1e1e" stroke-width="2" fill="none"></path></g><g stroke-linecap="round" transform="translate(143.5266662597656 414) rotate(0 16 14.5)"><path d="M7.25 0 C11.12 1.11, 15.12 -0.89, 24.75 0 M7.25 0 C10.22 0.05, 14.52 -0.36, 24.75 0 M24.75 0 C30.32 -1.94, 31.82 4.4, 32 7.25 M24.75 0 C29.93 -2.2, 32.87 2.12, 32 7.25 M32 7.25 C32.28 10.43, 31.63 16.55, 32 21.75 M32 7.25 C32.27 10.62, 32.06 15.68, 32 21.75 M32 21.75 C30.37 27.45, 28.29 27.66, 24.75 29 M32 21.75 C32.31 27.1, 29.27 29.88, 24.75 29 M24.75 29 C18.79 30.04, 14.62 29.95, 7.25 29 M24.75 29 C19.17 29.33, 13.99 28.96, 7.25 29 M7.25 29 C1.29 29.04, 0.51 25.12, 0 21.75 M7.25 29 C3.07 28.12, -1.95 28.11, 0 21.75 M0 21.75 C-0.93 18.37, -0.82 11.74, 0 7.25 M0 21.75 C0.03 16.68, -0.35 10.66, 0 7.25 M0 7.25 C0.08 2.13, 3.93 0.55, 7.25 0 M0 7.25 C1.65 0.88, 0.32 1.65, 7.25 0" stroke="#1e1e1e" stroke-width="2" fill="none"></path></g><g stroke-linecap="round" transform="translate(143.5266662597656 167) rotate(0 16 14.5)"><path d="M7.25 0 C9.83 -1.14, 12.89 -0.98, 24.75 0 M7.25 0 C11.76 -0.44, 16.42 -0.84, 24.75 0 M24.75 0 C29.4 1.98, 32.3 0.51, 32 7.25 M24.75 0 C30.45 -0.29, 32.01 4.51, 32 7.25 M32 7.25 C31.51 13.36, 31.69 19.5, 32 21.75 M32 7.25 C31.98 12.61, 31.44 17.52, 32 21.75 M32 21.75 C30.7 25.24, 29.85 29.45, 24.75 29 M32 21.75 C31.69 27.47, 29 26.88, 24.75 29 M24.75 29 C18.82 30.03, 13.88 27.52, 7.25 29 M24.75 29 C17.49 28.83, 10.45 29.05, 7.25 29 M7.25 29 C2.92 27.54, 0.57 25.82, 0 21.75 M7.25 29 C0.47 30.52, 0.23 24.89, 0 21.75 M0 21.75 C-0.83 16.05, 0.99 12.43, 0 7.25 M0 21.75 C-0.35 16.15, 0.02 11.68, 0 7.25 M0 7.25 C1.51 2.96, 3.85 -1.33, 7.25 0 M0 7.25 C-2.1 4.07, 1.02 1.44, 7.25 0" stroke="#1e1e1e" stroke-width="2" fill="none"></path></g><g stroke-linecap="round" transform="translate(143.5266662597656 106) rotate(0 16 14.5)"><path d="M7.25 0 C11.8 -0.78, 18.83 -1.14, 24.75 0 M7.25 0 C12.75 -0.76, 17.52 0.96, 24.75 0 M24.75 0 C29.88 -1.91, 32.75 2.16, 32 7.25 M24.75 0 C29.6 2.09, 33.87 2.65, 32 7.25 M32 7.25 C31.62 11.62, 32.58 13.91, 32 21.75 M32 7.25 C31.4 10.61, 31.52 12.87, 32 21.75 M32 21.75 C32.27 27.03, 29.31 29.77, 24.75 29 M32 21.75 C31.41 24.46, 29.79 27.48, 24.75 29 M24.75 29 C18.42 27.51, 13.85 28.33, 7.25 29 M24.75 29 C18.68 28.98, 13.81 28.32, 7.25 29 M7.25 29 C2.98 28.24, -1.69 27.91, 0 21.75 M7.25 29 C2.65 27.3, 0.53 24.94, 0 21.75 M0 21.75 C0.98 16.34, 0.73 10.89, 0 7.25 M0 21.75 C0.1 16.96, 0.62 12.58, 0 7.25 M0 7.25 C1.44 1.08, 0.59 1.44, 7.25 0 M0 7.25 C-1.39 3.86, 1.91 -1.13, 7.25 0" stroke="#1e1e1e" stroke-width="2" fill="none"></path></g><g stroke-linecap="round" transform="translate(142.5266662597656 196) rotate(0 16 14.5)"><path d="M7.25 0 C10.63 -1.16, 15.58 0.26, 24.75 0 M7.25 0 C11.53 1.04, 16.09 -0.67, 24.75 0 M24.75 0 C30.34 -0.26, 32.01 4.24, 32 7.25 M24.75 0 C31.45 0.24, 30.14 1.62, 32 7.25 M32 7.25 C32.59 12.49, 30.67 17, 32 21.75 M32 7.25 C31.41 11.87, 31.98 17.63, 32 21.75 M32 21.75 C31.73 27.35, 29.07 27.15, 24.75 29 M32 21.75 C32.21 25.06, 30.93 28.32, 24.75 29 M24.75 29 C20.22 28.08, 12.72 28.12, 7.25 29 M24.75 29 C20.12 28.36, 15.3 28.67, 7.25 29 M7.25 29 C0.73 30.32, 0.2 25.11, 0 21.75 M7.25 29 C2.95 27.36, 1.77 25.11, 0 21.75 M0 21.75 C0.54 18.49, 0.24 14.4, 0 7.25 M0 21.75 C0.54 18.83, 0.52 15.04, 0 7.25 M0 7.25 C-1.82 3.85, 1.21 1.25, 7.25 0 M0 7.25 C-0.51 1.29, 0.71 -0.39, 7.25 0" stroke="#1e1e1e" stroke-width="2" fill="none"></path></g><g stroke-linecap="round" transform="translate(143.5266662597656 137) rotate(0 16 14.5)"><path d="M7.25 0 C11.54 0.29, 15.09 0.77, 24.75 0 M7.25 0 C10.93 -1.01, 14.68 -0.28, 24.75 0 M24.75 0 C29.59 1.82, 33.62 2.62, 32 7.25 M24.75 0 C27.72 -0.79, 32.92 1.9, 32 7.25 M32 7.25 C30.76 12.69, 32.82 17.17, 32 21.75 M32 7.25 C32 12.39, 31.81 17.48, 32 21.75 M32 21.75 C31.49 24.74, 29.77 27.67, 24.75 29 M32 21.75 C33.35 25.9, 30.81 28.93, 24.75 29 M24.75 29 C21.41 28.2, 17.01 27.94, 7.25 29 M24.75 29 C19.72 28.54, 13.44 29.45, 7.25 29 M7.25 29 C2.62 27.53, 0.46 25.16, 0 21.75 M7.25 29 C4.18 27.53, -1.61 27.99, 0 21.75 M0 21.75 C0.27 16.67, -1.3 13.01, 0 7.25 M0 21.75 C0.41 17.13, -0.77 13.99, 0 7.25 M0 7.25 C-1.21 3.67, 1.98 -0.98, 7.25 0 M0 7.25 C-1.71 2.03, 2.32 -0.45, 7.25 0" stroke="#1e1e1e" stroke-width="2" fill="none"></path></g><g stroke-linecap="round" transform="translate(143.5266662597656 48.5) rotate(0 16.5 197.5)"><path d="M8.25 0 C11.18 0.59, 14.19 -0.16, 24.75 0 M8.25 0 C15.14 0.05, 21.42 0.91, 24.75 0 M24.75 0 C31.87 0.21, 31.38 2.06, 33 8.25 M24.75 0 C31.17 -0.52, 34.9 3.75, 33 8.25 M33 8.25 C31.59 128.91, 31.48 250.74, 33 386.75 M33 8.25 C33.22 96.68, 33.15 184.1, 33 386.75 M33 386.75 C33.18 390.92, 31.42 394.41, 24.75 395 M33 386.75 C34.22 392.18, 28.17 397.17, 24.75 395 M24.75 395 C20.14 394.01, 16.32 395.35, 8.25 395 M24.75 395 C20.31 395.48, 17.34 394.33, 8.25 395 M8.25 395 C3.21 393.57, 1.54 390.97, 0 386.75 M8.25 395 C1.14 396.41, 0.08 393.25, 0 386.75 M0 386.75 C-1.55 271.41, -0.7 156.88, 0 8.25 M0 386.75 C-2.19 263.26, -2 139.28, 0 8.25 M0 8.25 C-0.44 1.77, 1.27 -0.34, 8.25 0 M0 8.25 C-0.1 2.3, 1.31 -1.93, 8.25 0" stroke="#1e1e1e" stroke-width="2" fill="none"></path></g><g stroke-linecap="round" transform="translate(178.5266662597656 77.5) rotate(0 16 14.5)"><path d="M7.25 0 C10.64 0.53, 13.51 0.14, 24.75 0 M7.25 0 C13.47 0.1, 19.47 0.39, 24.75 0 M24.75 0 C28.95 1.12, 30.5 3.71, 32 7.25 M24.75 0 C28.57 -1.59, 31.77 2.69, 32 7.25 M32 7.25 C32.9 12.87, 30.64 14.78, 32 21.75 M32 7.25 C32.31 12.4, 31.5 18.08, 32 21.75 M32 21.75 C33.15 25.23, 29.79 27.03, 24.75 29 M32 21.75 C31.9 24.64, 27.78 27.03, 24.75 29 M24.75 29 C20.73 29.74, 12.27 29.23, 7.25 29 M24.75 29 C20.5 29.18, 14.36 29.35, 7.25 29 M7.25 29 C4.21 28.55, -0.07 28.21, 0 21.75 M7.25 29 C2.14 26.95, -0.58 25.77, 0 21.75 M0 21.75 C0.18 16.21, 0.16 10.95, 0 7.25 M0 21.75 C-0.62 17.91, 0.16 12.93, 0 7.25 M0 7.25 C0.83 1.92, 3.59 1.05, 7.25 0 M0 7.25 C-0.48 1.4, 1.12 -1.91, 7.25 0" stroke="#1e1e1e" stroke-width="2" fill="none"></path></g><g stroke-linecap="round" transform="translate(178.5266662597656 415) rotate(0 16 14.5)"><path d="M7.25 0 C9.72 -0.04, 15.88 1.45, 24.75 0 M7.25 0 C10.55 0.23, 14.12 0.5, 24.75 0 M24.75 0 C28.08 1.29, 31.12 1.04, 32 7.25 M24.75 0 C29.35 0.28, 31.82 0.45, 32 7.25 M32 7.25 C30.87 10.51, 32.92 16.68, 32 21.75 M32 7.25 C31.44 12.89, 32.46 17.06, 32 21.75 M32 21.75 C32.2 24.62, 29.5 27.31, 24.75 29 M32 21.75 C30.2 24.61, 29.74 29.29, 24.75 29 M24.75 29 C17.63 29.28, 13.56 29.71, 7.25 29 M24.75 29 C17.53 29.24, 12.54 28.81, 7.25 29 M7.25 29 C2.35 30.63, -0.24 24.8, 0 21.75 M7.25 29 C1.84 28.19, 1.27 27.54, 0 21.75 M0 21.75 C0.2 17.78, -0.17 14.97, 0 7.25 M0 21.75 C0.3 15.65, 0.42 10.2, 0 7.25 M0 7.25 C1.17 3.47, 2 -0.89, 7.25 0 M0 7.25 C-1.29 0.51, 1.36 -0.13, 7.25 0" stroke="#1e1e1e" stroke-width="2" fill="none"></path></g><g stroke-linecap="round" transform="translate(178.5266662597656 168) rotate(0 16 14.5)"><path d="M7.25 0 C13.88 1.49, 16.84 -0.04, 24.75 0 M7.25 0 C12.1 0.45, 16.84 0.52, 24.75 0 M24.75 0 C28.71 -1.38, 31.8 2.66, 32 7.25 M24.75 0 C29.4 -1.97, 31.75 4.05, 32 7.25 M32 7.25 C32.7 14.03, 32.68 19.13, 32 21.75 M32 7.25 C32.29 11.06, 31.95 15.14, 32 21.75 M32 21.75 C31.92 24.9, 28.02 27.28, 24.75 29 M32 21.75 C32.16 26.87, 29.76 30.78, 24.75 29 M24.75 29 C18.36 29.66, 14.05 30.18, 7.25 29 M24.75 29 C20.17 28.85, 14 29.76, 7.25 29 M7.25 29 C2.17 27.22, -0.51 25.88, 0 21.75 M7.25 29 C3.69 29.96, -1.39 26.96, 0 21.75 M0 21.75 C-0.17 17.95, 1.31 12.61, 0 7.25 M0 21.75 C0.27 16.49, 0.39 11.97, 0 7.25 M0 7.25 C-0.42 1.53, 1.29 -1.66, 7.25 0 M0 7.25 C-1.05 2.29, 4.7 1.06, 7.25 0" stroke="#1e1e1e" stroke-width="2" fill="none"></path></g><g stroke-linecap="round" transform="translate(178.5266662597656 107) rotate(0 16 14.5)"><path d="M7.25 0 C10.82 -0.19, 17.61 -0.69, 24.75 0 M7.25 0 C12.29 0.47, 18.25 -0.7, 24.75 0 M24.75 0 C29.38 0.24, 31.84 0.7, 32 7.25 M24.75 0 C29.34 1.63, 34.19 0.46, 32 7.25 M32 7.25 C32.88 11.08, 32.04 12.87, 32 21.75 M32 7.25 C32.16 11.88, 32.05 17.32, 32 21.75 M32 21.75 C30.43 24.87, 29.72 29.25, 24.75 29 M32 21.75 C32.18 28.37, 30.53 26.72, 24.75 29 M24.75 29 C20.53 30.23, 13.93 27.61, 7.25 29 M24.75 29 C19.01 29.67, 13.23 28.18, 7.25 29 M7.25 29 C1.91 28.29, 1.11 27.41, 0 21.75 M7.25 29 C1.02 29.38, -0.61 26.94, 0 21.75 M0 21.75 C1.35 16.69, 0.74 14.4, 0 7.25 M0 21.75 C0.36 18.61, -0.21 14.38, 0 7.25 M0 7.25 C-1.13 0.76, 1.5 -0.11, 7.25 0 M0 7.25 C2.28 3.47, 1.94 -2.15, 7.25 0" stroke="#1e1e1e" stroke-width="2" fill="none"></path></g><g stroke-linecap="round" transform="translate(177.5266662597656 197) rotate(0 16 14.5)"><path d="M7.25 0 C13.86 -0.53, 21.17 -0.55, 24.75 0 M7.25 0 C13.1 -0.72, 19.62 -0.01, 24.75 0 M24.75 0 C29.42 -1.71, 31.78 3.83, 32 7.25 M24.75 0 C31.77 -1.95, 30.52 3.72, 32 7.25 M32 7.25 C32.03 11.44, 33.07 18.87, 32 21.75 M32 7.25 C31.98 10.01, 31.45 13.36, 32 21.75 M32 21.75 C32.14 26.84, 29.74 30.55, 24.75 29 M32 21.75 C32.95 24.31, 29.86 28.45, 24.75 29 M24.75 29 C18.97 27.67, 13.44 30.68, 7.25 29 M24.75 29 C19.79 28.36, 14.82 28.83, 7.25 29 M7.25 29 C3.52 29.83, -1.21 26.91, 0 21.75 M7.25 29 C1.81 29.36, -0.79 26.35, 0 21.75 M0 21.75 C0.59 17.6, -0.96 13.33, 0 7.25 M0 21.75 C-0.24 17.44, -0.49 13.16, 0 7.25 M0 7.25 C-0.92 2.3, 4.4 0.92, 7.25 0 M0 7.25 C-0.48 0.27, 0.84 -0.9, 7.25 0" stroke="#1e1e1e" stroke-width="2" fill="none"></path></g><g stroke-linecap="round" transform="translate(178.5266662597656 138) rotate(0 16 14.5)"><path d="M7.25 0 C12.9 -0.5, 18.65 -1.26, 24.75 0 M7.25 0 C13.54 0.23, 19.94 -0.63, 24.75 0 M24.75 0 C29.37 1.42, 33.9 0.72, 32 7.25 M24.75 0 C28.1 1.3, 33.66 3.68, 32 7.25 M32 7.25 C32.99 12.85, 31.01 16.94, 32 21.75 M32 7.25 C31.43 9.55, 32.04 13.19, 32 21.75 M32 21.75 C32.15 28.13, 30.41 27.02, 24.75 29 M32 21.75 C32.28 26.03, 30.42 30.64, 24.75 29 M24.75 29 C18.8 30.42, 11.53 28.79, 7.25 29 M24.75 29 C17.85 28.54, 11.88 29.21, 7.25 29 M7.25 29 C1.2 29.33, -0.53 26.89, 0 21.75 M7.25 29 C1.63 28.77, 0.26 28.7, 0 21.75 M0 21.75 C-0.9 19.22, -0.43 16.32, 0 7.25 M0 21.75 C-0.38 16.04, -0.3 11.49, 0 7.25 M0 7.25 C1.98 3.34, 2 -1.87, 7.25 0 M0 7.25 C-1.58 1.52, 3.67 -1.83, 7.25 0" stroke="#1e1e1e" stroke-width="2" fill="none"></path></g><g stroke-linecap="round" transform="translate(178.5266662597656 49.5) rotate(0 16.5 197.5)"><path d="M8.25 0 C13.62 -1.18, 18.2 -0.67, 24.75 0 M8.25 0 C12 -0.73, 15.79 0.56, 24.75 0 M24.75 0 C32.15 -1.7, 31.71 3.88, 33 8.25 M24.75 0 C31.91 1.27, 33.67 2.68, 33 8.25 M33 8.25 C33.74 90.34, 33.37 172.13, 33 386.75 M33 8.25 C31.26 89.97, 31.26 172, 33 386.75 M33 386.75 C33.83 390.27, 30.49 394.52, 24.75 395 M33 386.75 C33.83 393.89, 31.78 395.14, 24.75 395 M24.75 395 C20.79 395.09, 18.93 394.95, 8.25 395 M24.75 395 C21.72 395.28, 17.29 395.08, 8.25 395 M8.25 395 C2.22 395.31, -0.69 392.05, 0 386.75 M8.25 395 C3.01 397.12, -1.92 393.4, 0 386.75 M0 386.75 C1 264.48, 1.93 140.55, 0 8.25 M0 386.75 C1.01 289.93, 1.88 193.46, 0 8.25 M0 8.25 C-0.41 0.88, 1.38 -0.78, 8.25 0 M0 8.25 C1.26 0.92, 3.54 -0.09, 8.25 0" stroke="#1e1e1e" stroke-width="2" fill="none"></path></g><g stroke-linecap="round" transform="translate(211.5266662597656 78.5) rotate(0 16 14.5)"><path d="M7.25 0 C14.78 0.05, 19.17 1.19, 24.75 0 M7.25 0 C12.67 -0.54, 19.16 -0.88, 24.75 0 M24.75 0 C28.79 0.72, 32.87 1.58, 32 7.25 M24.75 0 C30.93 0.12, 33.94 2.05, 32 7.25 M32 7.25 C31.79 10.85, 31.7 18.1, 32 21.75 M32 7.25 C32.42 11.61, 31.94 15.78, 32 21.75 M32 21.75 C31.37 24.71, 28.26 30.57, 24.75 29 M32 21.75 C32.9 24.57, 28.28 28.95, 24.75 29 M24.75 29 C18.14 29.68, 12.85 27.58, 7.25 29 M24.75 29 C17.84 29.1, 11.5 28.91, 7.25 29 M7.25 29 C2.72 28.51, -0.59 27, 0 21.75 M7.25 29 C1.67 28.07, 1.57 25.19, 0 21.75 M0 21.75 C1.36 17.91, -0.43 15.25, 0 7.25 M0 21.75 C-0.23 16.39, -0.39 12.46, 0 7.25 M0 7.25 C-1.46 1.95, 1.98 -0.31, 7.25 0 M0 7.25 C-1.36 0.94, 0.23 -2.02, 7.25 0" stroke="#1e1e1e" stroke-width="2" fill="none"></path></g><g stroke-linecap="round" transform="translate(211.5266662597656 416) rotate(0 16 14.5)"><path d="M7.25 0 C11.8 1.13, 17.53 -0.96, 24.75 0 M7.25 0 C12.82 -0.7, 19.04 0.41, 24.75 0 M24.75 0 C30.45 -0.84, 33.17 2.52, 32 7.25 M24.75 0 C31.53 -0.36, 32.83 1.31, 32 7.25 M32 7.25 C31.76 14.02, 31.87 19.94, 32 21.75 M32 7.25 C31.86 12.01, 31.83 15.99, 32 21.75 M32 21.75 C30.67 28.15, 30.37 27.25, 24.75 29 M32 21.75 C30.69 26.53, 29.91 26.71, 24.75 29 M24.75 29 C19.33 27.73, 17.1 30.2, 7.25 29 M24.75 29 C20.44 29.04, 16.22 28.82, 7.25 29 M7.25 29 C1.83 29.42, -0.65 25.77, 0 21.75 M7.25 29 C3.99 27.6, -1.82 26.8, 0 21.75 M0 21.75 C-0.55 17.53, 0.45 12.66, 0 7.25 M0 21.75 C-0.42 19.37, -0.47 15.65, 0 7.25 M0 7.25 C-0.43 2.11, 1.23 -1.28, 7.25 0 M0 7.25 C-2.18 0.4, 2.95 0.5, 7.25 0" stroke="#1e1e1e" stroke-width="2" fill="none"></path></g><g stroke-linecap="round" transform="translate(211.5266662597656 169) rotate(0 16 14.5)"><path d="M7.25 0 C13.45 -1.08, 18.55 -1.68, 24.75 0 M7.25 0 C11.23 0.48, 16.29 -0.21, 24.75 0 M24.75 0 C30.76 0.11, 33.69 2.1, 32 7.25 M24.75 0 C30.42 -1.11, 34.09 2.2, 32 7.25 M32 7.25 C31.86 11.68, 32.33 13.98, 32 21.75 M32 7.25 C31.73 11.17, 31.48 17.02, 32 21.75 M32 21.75 C32.79 24.83, 28.45 28.95, 24.75 29 M32 21.75 C32.33 24.29, 28.63 27.54, 24.75 29 M24.75 29 C20.13 29.99, 11.82 28.33, 7.25 29 M24.75 29 C19.24 28.78, 13.2 29.18, 7.25 29 M7.25 29 C1.77 28.19, 1.37 25.37, 0 21.75 M7.25 29 C0.59 29.21, -0.36 28.76, 0 21.75 M0 21.75 C0.63 17.19, -1.34 13.72, 0 7.25 M0 21.75 C-0.43 18.08, -0.06 14.63, 0 7.25 M0 7.25 C-1.18 1.13, 0.52 -1.76, 7.25 0 M0 7.25 C0.53 2.92, 0.89 -0.62, 7.25 0" stroke="#1e1e1e" stroke-width="2" fill="none"></path></g><g stroke-linecap="round" transform="translate(211.5266662597656 108) rotate(0 16 14.5)"><path d="M7.25 0 C14.45 -1.47, 19.09 -0.9, 24.75 0 M7.25 0 C11.29 -0.43, 15.08 -0.02, 24.75 0 M24.75 0 C31.27 -0.31, 32.72 1.45, 32 7.25 M24.75 0 C31.68 -0.22, 29.98 2.05, 32 7.25 M32 7.25 C32.35 13.27, 32.24 17.76, 32 21.75 M32 7.25 C31.47 12.27, 32.24 15.52, 32 21.75 M32 21.75 C30.86 26.54, 29.87 27.01, 24.75 29 M32 21.75 C31.04 25.13, 30.58 27.82, 24.75 29 M24.75 29 C19.92 28.57, 17.33 29.16, 7.25 29 M24.75 29 C19.25 29.14, 13.98 28.6, 7.25 29 M7.25 29 C3.79 27.78, -1.59 26.77, 0 21.75 M7.25 29 C2.05 31.18, -1.02 25.92, 0 21.75 M0 21.75 C-1.44 16.88, -0.9 12.3, 0 7.25 M0 21.75 C-0.05 16.11, -0.32 10.24, 0 7.25 M0 7.25 C-1.9 0.66, 2.88 0.44, 7.25 0 M0 7.25 C-1.53 1.79, 2.11 1.15, 7.25 0" stroke="#1e1e1e" stroke-width="2" fill="none"></path></g><g stroke-linecap="round" transform="translate(210.5266662597656 198) rotate(0 16 14.5)"><path d="M7.25 0 C10.61 -0.84, 14.23 -0.53, 24.75 0 M7.25 0 C13.65 0.12, 19.76 -0.06, 24.75 0 M24.75 0 C30.31 -0.97, 33.82 2.23, 32 7.25 M24.75 0 C27.57 -0.36, 33.74 2.24, 32 7.25 M32 7.25 C32.29 12.57, 32.14 18.2, 32 21.75 M32 7.25 C32.19 9.61, 31.49 13.22, 32 21.75 M32 21.75 C32.28 24.59, 28.75 27.73, 24.75 29 M32 21.75 C32.99 25.4, 27.82 30.82, 24.75 29 M24.75 29 C18.77 28.99, 12 29.21, 7.25 29 M24.75 29 C19.65 28.68, 15.71 28.51, 7.25 29 M7.25 29 C0.83 29.19, -0.32 28.48, 0 21.75 M7.25 29 C1.39 28.34, -0.16 27.51, 0 21.75 M0 21.75 C-0.71 17.3, 1.31 13.7, 0 7.25 M0 21.75 C-0.4 17.27, -0.66 13.09, 0 7.25 M0 7.25 C0.46 2.85, 1.09 -0.54, 7.25 0 M0 7.25 C-0.3 3.57, 4.03 2.03, 7.25 0" stroke="#1e1e1e" stroke-width="2" fill="none"></path></g><g stroke-linecap="round" transform="translate(211.5266662597656 139) rotate(0 16 14.5)"><path d="M7.25 0 C9.34 -0.59, 15.25 0.86, 24.75 0 M7.25 0 C12.51 -0.15, 16.6 -0.43, 24.75 0 M24.75 0 C31.4 -0.19, 30.25 2.1, 32 7.25 M24.75 0 C31.33 -0.18, 34.15 2.98, 32 7.25 M32 7.25 C32.13 11.71, 30.67 16.12, 32 21.75 M32 7.25 C31.64 12.72, 32.16 17.5, 32 21.75 M32 21.75 C31.17 25.32, 30.45 27.97, 24.75 29 M32 21.75 C30.23 28.41, 31.06 27.79, 24.75 29 M24.75 29 C20.04 29.27, 14.9 28.49, 7.25 29 M24.75 29 C19.73 28.4, 12.82 29.01, 7.25 29 M7.25 29 C2.1 30.89, -0.89 26.01, 0 21.75 M7.25 29 C2.25 29.93, -1.35 24.39, 0 21.75 M0 21.75 C1.26 16.97, -0.25 13.98, 0 7.25 M0 21.75 C-0.6 16.99, 0.25 13.65, 0 7.25 M0 7.25 C-1.33 1.88, 2.15 1, 7.25 0 M0 7.25 C1.61 4.45, 3.15 1.12, 7.25 0" stroke="#1e1e1e" stroke-width="2" fill="none"></path></g><g stroke-linecap="round" transform="translate(211.5266662597656 50.5) rotate(0 16.5 197.5)"><path d="M8.25 0 C12.85 0.78, 15.57 1.03, 24.75 0 M8.25 0 C13.59 -0.37, 19.08 -0.05, 24.75 0 M24.75 0 C28.5 -0.32, 34.52 2.59, 33 8.25 M24.75 0 C32.4 0.57, 33.9 3.15, 33 8.25 M33 8.25 C32.04 110.91, 34.11 215.65, 33 386.75 M33 8.25 C31.79 88, 31.45 168.58, 33 386.75 M33 386.75 C33.87 391.22, 28.71 396.59, 24.75 395 M33 386.75 C34.48 391.04, 29.54 395.52, 24.75 395 M24.75 395 C19.35 394.54, 15.12 394.49, 8.25 395 M24.75 395 C19.81 394.98, 16.05 395.68, 8.25 395 M8.25 395 C1.86 394.42, -0.14 393.06, 0 386.75 M8.25 395 C1.4 392.81, -0.99 390.91, 0 386.75 M0 386.75 C-2.13 297.87, -2.03 208.8, 0 8.25 M0 386.75 C2.3 297.63, 1.76 208.09, 0 8.25 M0 8.25 C-0.26 3.75, 4.15 1.77, 8.25 0 M0 8.25 C0.74 3.87, 0.65 -0.16, 8.25 0" stroke="#1e1e1e" stroke-width="2" fill="none"></path></g><g stroke-linecap="round" transform="translate(245.5266662597656 78.5) rotate(0 16 14.5)"><path d="M7.25 0 C11.99 -1.67, 17.21 0.97, 24.75 0 M7.25 0 C13.49 0.11, 19.85 -0.5, 24.75 0 M24.75 0 C29.26 -0.07, 31.76 1.79, 32 7.25 M24.75 0 C30.82 -0.03, 32.54 1.35, 32 7.25 M32 7.25 C31.8 9.57, 32.03 14.61, 32 21.75 M32 7.25 C32.63 11.28, 32.09 15.37, 32 21.75 M32 21.75 C32.1 27.79, 31.31 27.83, 24.75 29 M32 21.75 C34.12 27.43, 31.76 27.8, 24.75 29 M24.75 29 C17.69 30.03, 13.63 28.47, 7.25 29 M24.75 29 C20.21 29.6, 17.04 28.33, 7.25 29 M7.25 29 C3.79 29.72, 1.75 25.04, 0 21.75 M7.25 29 C0.95 27.29, -1.34 25.51, 0 21.75 M0 21.75 C0.65 17.16, -0.18 13.22, 0 7.25 M0 21.75 C0.27 16.74, 0.59 11.43, 0 7.25 M0 7.25 C-1.6 2.72, 2.07 0.4, 7.25 0 M0 7.25 C2.3 0.37, 4.17 1.89, 7.25 0" stroke="#1e1e1e" stroke-width="2" fill="none"></path></g><g stroke-linecap="round" transform="translate(245.5266662597656 416) rotate(0 16 14.5)"><path d="M7.25 0 C15.05 1.28, 22.1 -0.03, 24.75 0 M7.25 0 C12.01 -0.54, 17.33 -0.05, 24.75 0 M24.75 0 C29.35 -0.62, 33.08 2.39, 32 7.25 M24.75 0 C30.12 -1.06, 30.31 2.46, 32 7.25 M32 7.25 C32.01 12.45, 31.53 15.97, 32 21.75 M32 7.25 C32.22 12.04, 32.16 16.64, 32 21.75 M32 21.75 C33.73 25.41, 31.43 29.74, 24.75 29 M32 21.75 C34.17 25.38, 30.18 26.71, 24.75 29 M24.75 29 C21.43 28.76, 16.42 30.34, 7.25 29 M24.75 29 C20.73 28.53, 16.13 29.45, 7.25 29 M7.25 29 C4.16 27.45, -1.27 25.09, 0 21.75 M7.25 29 C1.07 27.93, -0.81 28.12, 0 21.75 M0 21.75 C-0.16 16.11, 0.75 13.17, 0 7.25 M0 21.75 C0.61 16.66, -0.65 11.6, 0 7.25 M0 7.25 C-0.35 2.81, 4.41 -1.78, 7.25 0 M0 7.25 C1.76 4.31, 0.76 0.03, 7.25 0" stroke="#1e1e1e" stroke-width="2" fill="none"></path></g><g stroke-linecap="round" transform="translate(245.5266662597656 169) rotate(0 16 14.5)"><path d="M7.25 0 C12.21 -0.29, 14.58 -0.59, 24.75 0 M7.25 0 C12.55 0.07, 18.03 -0.17, 24.75 0 M24.75 0 C30.66 -0.02, 32.47 1.49, 32 7.25 M24.75 0 C27.89 0.04, 32.09 2.1, 32 7.25 M32 7.25 C31.55 10.54, 32.13 15.3, 32 21.75 M32 7.25 C32.05 12.29, 32.64 16.04, 32 21.75 M32 21.75 C33.85 27.32, 31.47 27.96, 24.75 29 M32 21.75 C32.6 24.3, 27.44 27.22, 24.75 29 M24.75 29 C17.21 30.18, 11.22 28.2, 7.25 29 M24.75 29 C18.77 29.19, 12.35 28.2, 7.25 29 M7.25 29 C1.14 27.51, -1.17 25.65, 0 21.75 M7.25 29 C1.61 30.54, 0.7 27.77, 0 21.75 M0 21.75 C0.83 19.14, 0.79 15.27, 0 7.25 M0 21.75 C-0.72 17.18, -0.26 12.52, 0 7.25 M0 7.25 C2 0.64, 3.94 1.64, 7.25 0 M0 7.25 C-1.66 2.45, 0.29 -0.26, 7.25 0" stroke="#1e1e1e" stroke-width="2" fill="none"></path></g><g stroke-linecap="round" transform="translate(245.5266662597656 108) rotate(0 16 14.5)"><path d="M7.25 0 C13.49 -0.45, 20.19 -0.68, 24.75 0 M7.25 0 C11.36 -0.27, 16.15 0, 24.75 0 M24.75 0 C30.05 -0.92, 30.53 2.45, 32 7.25 M24.75 0 C29.67 -0.32, 30.47 2.46, 32 7.25 M32 7.25 C32.08 13.67, 32.21 17.72, 32 21.75 M32 7.25 C32.63 11.81, 32.68 17.49, 32 21.75 M32 21.75 C33.89 25.54, 30.1 27.01, 24.75 29 M32 21.75 C29.85 24.8, 31.16 29.39, 24.75 29 M24.75 29 C19.23 28.36, 16.31 30.3, 7.25 29 M24.75 29 C21.47 28.39, 16.1 28.41, 7.25 29 M7.25 29 C1.25 28.07, -0.7 27.92, 0 21.75 M7.25 29 C3.12 30.18, -1.18 26.44, 0 21.75 M0 21.75 C0.7 18.98, 0.25 16.11, 0 7.25 M0 21.75 C-0.01 17.47, 0.84 12.26, 0 7.25 M0 7.25 C1.53 4.06, 0.97 0.03, 7.25 0 M0 7.25 C-2.13 2.16, 0.79 -0.25, 7.25 0" stroke="#1e1e1e" stroke-width="2" fill="none"></path></g><g stroke-linecap="round" transform="translate(244.5266662597656 198) rotate(0 16 14.5)"><path d="M7.25 0 C12.51 -0.65, 16.35 -0.23, 24.75 0 M7.25 0 C12.91 0.04, 17.84 -0.35, 24.75 0 M24.75 0 C28.11 0.03, 32.08 2.14, 32 7.25 M24.75 0 C28.05 0.05, 33.25 1.71, 32 7.25 M32 7.25 C32.27 11.69, 32.65 15.83, 32 21.75 M32 7.25 C32.79 12.74, 32.81 17.32, 32 21.75 M32 21.75 C32.52 24.6, 27.72 27.45, 24.75 29 M32 21.75 C33.57 26.97, 29.11 27.56, 24.75 29 M24.75 29 C19.61 30.11, 10.61 30.13, 7.25 29 M24.75 29 C18.32 28.21, 12.48 28.46, 7.25 29 M7.25 29 C1.72 30.34, 0.61 27.61, 0 21.75 M7.25 29 C1.24 28.86, -1.34 27.89, 0 21.75 M0 21.75 C0.26 17.77, -0.01 9.89, 0 7.25 M0 21.75 C0.75 16.54, 0.58 13.21, 0 7.25 M0 7.25 C-1.44 2.45, 0.56 -0.23, 7.25 0 M0 7.25 C-1.63 2.16, 2.29 -1.18, 7.25 0" stroke="#1e1e1e" stroke-width="2" fill="none"></path></g><g stroke-linecap="round" transform="translate(245.5266662597656 139) rotate(0 16 14.5)"><path d="M7.25 0 C10.99 -0.21, 16.74 -0.14, 24.75 0 M7.25 0 C12.16 -0.4, 16.01 0.02, 24.75 0 M24.75 0 C29.66 -0.27, 30.67 2.46, 32 7.25 M24.75 0 C30.84 -0.71, 31.85 2.62, 32 7.25 M32 7.25 C32.66 12.95, 32.9 19.76, 32 21.75 M32 7.25 C32.82 10.37, 32.32 13.53, 32 21.75 M32 21.75 C30.13 25.03, 30.95 29.34, 24.75 29 M32 21.75 C31.52 25.14, 31.18 28.16, 24.75 29 M24.75 29 C19.06 30.32, 16.41 30.65, 7.25 29 M24.75 29 C20.34 28.46, 16.65 29.45, 7.25 29 M7.25 29 C3.03 30.03, -1.03 26.46, 0 21.75 M7.25 29 C1.08 30.31, 1.59 27.82, 0 21.75 M0 21.75 C0.04 15.5, 0.19 11.32, 0 7.25 M0 21.75 C0.41 17.71, -0.67 12.49, 0 7.25 M0 7.25 C-1.85 2.19, 1 -0.22, 7.25 0 M0 7.25 C-0.12 1.24, 2.8 -0.25, 7.25 0" stroke="#1e1e1e" stroke-width="2" fill="none"></path></g><g stroke-linecap="round" transform="translate(245.5266662597656 50.5) rotate(0 16.5 197.5)"><path d="M8.25 0 C12.49 -0.17, 16.33 0.92, 24.75 0 M8.25 0 C12.57 0.09, 18.14 -0.04, 24.75 0 M24.75 0 C28.92 0.04, 34.09 2.13, 33 8.25 M24.75 0 C30.1 0.2, 35.03 3.16, 33 8.25 M33 8.25 C34.72 127.8, 33.29 246.38, 33 386.75 M33 8.25 C35.31 135.15, 34.59 262.78, 33 386.75 M33 386.75 C34.37 392.59, 29.84 393.75, 24.75 395 M33 386.75 C34.6 391.41, 29.24 396.75, 24.75 395 M24.75 395 C19.28 396.55, 11.35 394.06, 8.25 395 M24.75 395 C20.74 395.47, 17.56 395.35, 8.25 395 M8.25 395 C1.72 394.88, -1.16 393.39, 0 386.75 M8.25 395 C4.34 396.23, 1.17 392.78, 0 386.75 M0 386.75 C0.07 237.09, 0.12 89.06, 0 8.25 M0 386.75 C-2.17 306.85, -2.3 226.86, 0 8.25 M0 8.25 C-1.42 2.53, 2.64 -1.03, 8.25 0 M0 8.25 C0.38 2.5, 3.78 -0.37, 8.25 0" stroke="#1e1e1e" stroke-width="2" fill="none"></path></g><g stroke-linecap="round" transform="translate(508.5266662597656 76.5) rotate(0 16 14.5)"><path d="M7.25 0 C13.66 -0.06, 19.52 1.33, 24.75 0 M7.25 0 C11.37 0.08, 16.29 0.46, 24.75 0 M24.75 0 C31.4 -0.45, 31.9 2.25, 32 7.25 M24.75 0 C29.42 0.51, 33.17 0.12, 32 7.25 M32 7.25 C32.96 10.56, 30.57 13.81, 32 21.75 M32 7.25 C32.1 12.34, 31.27 16.08, 32 21.75 M32 21.75 C30.42 25.26, 29.83 30.21, 24.75 29 M32 21.75 C32.03 26.17, 28.65 28.7, 24.75 29 M24.75 29 C18.44 28.93, 13.71 29.8, 7.25 29 M24.75 29 C21.55 28.27, 17.18 28.26, 7.25 29 M7.25 29 C1.47 29.63, -0.58 28.08, 0 21.75 M7.25 29 C1.49 29.25, -1.87 25.69, 0 21.75 M0 21.75 C0.04 17.1, 0.95 13.28, 0 7.25 M0 21.75 C-0.31 16.38, 0.23 12.21, 0 7.25 M0 7.25 C-0.19 1.71, 2.38 1.38, 7.25 0 M0 7.25 C-0.18 2.59, 0.71 -2.05, 7.25 0" stroke="#1e1e1e" stroke-width="2" fill="none"></path></g><g stroke-linecap="round" transform="translate(508.5266662597656 414) rotate(0 16 14.5)"><path d="M7.25 0 C12.71 1.43, 18.78 -1.38, 24.75 0 M7.25 0 C13.27 0.43, 18.34 -0.21, 24.75 0 M24.75 0 C29.48 -0.17, 31.85 2.86, 32 7.25 M24.75 0 C30.75 -2.3, 30.79 0.84, 32 7.25 M32 7.25 C30.77 12.41, 32.39 17.42, 32 21.75 M32 7.25 C31.46 10.69, 31.48 14.54, 32 21.75 M32 21.75 C32.24 27.79, 29.61 28.64, 24.75 29 M32 21.75 C31.06 26.28, 30.58 28.2, 24.75 29 M24.75 29 C21.83 29.94, 15.66 29.47, 7.25 29 M24.75 29 C19.21 28.03, 12.51 29.12, 7.25 29 M7.25 29 C1.84 30.5, -0.81 26.8, 0 21.75 M7.25 29 C0.55 28.1, 0.21 25.99, 0 21.75 M0 21.75 C0.91 18.2, 0.56 13.27, 0 7.25 M0 21.75 C0.26 17.26, 0 11.95, 0 7.25 M0 7.25 C-0.03 3.8, 2.26 0.15, 7.25 0 M0 7.25 C-1.71 0.37, 2.17 -0.88, 7.25 0" stroke="#1e1e1e" stroke-width="2" fill="none"></path></g><g stroke-linecap="round" transform="translate(508.5266662597656 167) rotate(0 16 14.5)"><path d="M7.25 0 C11.39 -1.52, 17.75 -0.07, 24.75 0 M7.25 0 C13.42 -0.28, 17.97 -0.16, 24.75 0 M24.75 0 C29.44 0.44, 33.01 0.42, 32 7.25 M24.75 0 C28.38 -1.58, 34.26 4.1, 32 7.25 M32 7.25 C32.16 9.93, 31.4 15.87, 32 21.75 M32 7.25 C31.31 12.02, 31.97 18.19, 32 21.75 M32 21.75 C32.03 26.22, 28.77 28.74, 24.75 29 M32 21.75 C33 25.79, 27.81 28.61, 24.75 29 M24.75 29 C18.15 29.55, 14.78 30.64, 7.25 29 M24.75 29 C20.69 29.11, 17.2 29.5, 7.25 29 M7.25 29 C1.61 29.21, -1.63 25.8, 0 21.75 M7.25 29 C2.63 28.41, -0.48 26.58, 0 21.75 M0 21.75 C0.47 17.18, 0.33 12.69, 0 7.25 M0 21.75 C-0.11 18.07, -0.05 15.4, 0 7.25 M0 7.25 C-0.15 2.57, 0.93 -1.78, 7.25 0 M0 7.25 C-0.25 1.54, 3.21 -0.75, 7.25 0" stroke="#1e1e1e" stroke-width="2" fill="none"></path></g><g stroke-linecap="round" transform="translate(508.5266662597656 106) rotate(0 16 14.5)"><path d="M7.25 0 C13.83 0.21, 20.76 1.88, 24.75 0 M7.25 0 C13.35 -0.03, 19.47 0.23, 24.75 0 M24.75 0 C30.6 -2, 30.95 1.04, 32 7.25 M24.75 0 C31.85 1.68, 31.55 0.3, 32 7.25 M32 7.25 C31.56 11.46, 32.93 13.53, 32 21.75 M32 7.25 C31.97 11.15, 31.89 14.04, 32 21.75 M32 21.75 C31.19 26.32, 30.45 28.31, 24.75 29 M32 21.75 C30.23 26.19, 29.67 30.29, 24.75 29 M24.75 29 C19.23 30.59, 10.78 29.79, 7.25 29 M24.75 29 C20.86 29.71, 17.12 29.15, 7.25 29 M7.25 29 C0.79 28.22, 0.18 26.07, 0 21.75 M7.25 29 C1.94 29, -0.26 28.03, 0 21.75 M0 21.75 C0.37 16.22, -0.98 12.45, 0 7.25 M0 21.75 C0 17.34, -0.04 11.99, 0 7.25 M0 7.25 C-1.48 0.64, 2.2 -0.76, 7.25 0 M0 7.25 C0.79 1.67, 2.42 -1.46, 7.25 0" stroke="#1e1e1e" stroke-width="2" fill="none"></path></g><g stroke-linecap="round" transform="translate(507.5266662597656 196) rotate(0 16 14.5)"><path d="M7.25 0 C11.25 1.74, 15.89 1.58, 24.75 0 M7.25 0 C12.05 0.21, 17.41 -0.86, 24.75 0 M24.75 0 C28.53 -1.37, 33.97 3.88, 32 7.25 M24.75 0 C29.13 -2.11, 31.02 2.87, 32 7.25 M32 7.25 C32.85 9.03, 31.06 12.02, 32 21.75 M32 7.25 C32.03 10.51, 31.72 13.94, 32 21.75 M32 21.75 C32.87 25.89, 28.04 28.66, 24.75 29 M32 21.75 C32.09 27.87, 30.81 27.32, 24.75 29 M24.75 29 C17.44 29.9, 11.72 28.33, 7.25 29 M24.75 29 C18.6 29.23, 12.44 28.79, 7.25 29 M7.25 29 C2.6 28.49, -0.42 26.58, 0 21.75 M7.25 29 C2.16 30.45, 0.79 27.47, 0 21.75 M0 21.75 C-0.97 18.17, 0.52 13.67, 0 7.25 M0 21.75 C-0.05 17.97, -0.54 13.43, 0 7.25 M0 7.25 C-0.22 1.65, 3.11 -0.65, 7.25 0 M0 7.25 C0.01 0.96, 0.97 1.24, 7.25 0" stroke="#1e1e1e" stroke-width="2" fill="none"></path></g><g stroke-linecap="round" transform="translate(508.5266662597656 137) rotate(0 16 14.5)"><path d="M7.25 0 C13.46 1.41, 17.5 -0.26, 24.75 0 M7.25 0 C12.8 -0.91, 17 -0.64, 24.75 0 M24.75 0 C31.55 1.46, 31.61 0.58, 32 7.25 M24.75 0 C28.6 0.46, 29.8 1.68, 32 7.25 M32 7.25 C31.2 10.94, 31.13 17.09, 32 21.75 M32 7.25 C31.71 12.38, 32.32 17.46, 32 21.75 M32 21.75 C30.46 26.24, 29.66 30.12, 24.75 29 M32 21.75 C33.23 24.9, 30.19 29.87, 24.75 29 M24.75 29 C16.34 28.25, 11.71 28.57, 7.25 29 M24.75 29 C17.47 28.68, 11.7 28.79, 7.25 29 M7.25 29 C2 29, -0.23 27.84, 0 21.75 M7.25 29 C3.2 29.89, -0.6 27.25, 0 21.75 M0 21.75 C0.65 17.95, -0.42 14.4, 0 7.25 M0 21.75 C-0.53 15.75, -0.07 10.77, 0 7.25 M0 7.25 C0.69 1.77, 2.42 -1.27, 7.25 0 M0 7.25 C-1.45 3.65, 3.15 1.24, 7.25 0" stroke="#1e1e1e" stroke-width="2" fill="none"></path></g><g stroke-linecap="round" transform="translate(508.5266662597656 48.5) rotate(0 16.5 197.5)"><path d="M8.25 0 C14.48 -0.23, 21.31 -0.27, 24.75 0 M8.25 0 C13.13 -0.4, 19.7 0.77, 24.75 0 M24.75 0 C29.86 -1.84, 32.14 3.15, 33 8.25 M24.75 0 C28.05 -0.74, 33.77 4.18, 33 8.25 M33 8.25 C30.8 91.21, 32.33 173.89, 33 386.75 M33 8.25 C32.33 114.75, 31.61 221.56, 33 386.75 M33 386.75 C33.08 393.37, 31.32 393.54, 24.75 395 M33 386.75 C33.6 393.12, 32.28 392.9, 24.75 395 M24.75 395 C19.62 394.44, 14.69 394.26, 8.25 395 M24.75 395 C19.7 394.72, 14.32 394.94, 8.25 395 M8.25 395 C2.52 396.26, 0.68 393.02, 0 386.75 M8.25 395 C2.15 395.67, -1.09 390.79, 0 386.75 M0 386.75 C-1.31 262.99, -0.05 139.19, 0 8.25 M0 386.75 C1.63 270.16, 1.9 153.83, 0 8.25 M0 8.25 C0.01 1.48, 1.49 1.08, 8.25 0 M0 8.25 C0.73 3.99, 3.52 -0.05, 8.25 0" stroke="#1e1e1e" stroke-width="2" fill="none"></path></g><g transform="translate(369.5266662597656 33.164134936851156) rotate(0 16.649999618530273 25.41793253157445)"><text x="0" y="35.625774236254735" font-family="Virgil, Segoe UI Emoji" font-size="40.668692050519105px" fill="#1e1e1e" text-anchor="start" style="white-space: pre;" direction="ltr" dominant-baseline="alphabetic">...</text></g><g transform="translate(112.87666664123532 292.5070667054862) rotate(89.9999999999999 16.649999618530273 25.417932531574422)"><text x="0" y="35.625774236254735" font-family="Virgil, Segoe UI Emoji" font-size="40.668692050519105px" fill="#1e1e1e" text-anchor="start" style="white-space: pre;" direction="ltr" dominant-baseline="alphabetic">...</text></g><g transform="translate(146.87666664123532 293.50706670548595) rotate(89.9999999999999 16.649999618530273 25.417932531574422)"><text x="0" y="35.625774236254735" font-family="Virgil, Segoe UI Emoji" font-size="40.668692050519105px" fill="#1e1e1e" text-anchor="start" style="white-space: pre;" direction="ltr" dominant-baseline="alphabetic">...</text></g><g transform="translate(185.87666664123532 294.50706670548607) rotate(89.9999999999999 16.649999618530273 25.417932531574422)"><text x="0" y="35.625774236254735" font-family="Virgil, Segoe UI Emoji" font-size="40.668692050519105px" fill="#1e1e1e" text-anchor="start" style="white-space: pre;" direction="ltr" dominant-baseline="alphabetic">...</text></g><g transform="translate(218.87666664123532 293.50706670548607) rotate(89.9999999999999 16.649999618530273 25.417932531574422)"><text x="0" y="35.625774236254735" font-family="Virgil, Segoe UI Emoji" font-size="40.668692050519105px" fill="#1e1e1e" text-anchor="start" style="white-space: pre;" direction="ltr" dominant-baseline="alphabetic">...</text></g><g transform="translate(252.87666664123532 294.50706670548607) rotate(89.9999999999999 16.649999618530273 25.417932531574422)"><text x="0" y="35.625774236254735" font-family="Virgil, Segoe UI Emoji" font-size="40.668692050519105px" fill="#1e1e1e" text-anchor="start" style="white-space: pre;" direction="ltr" dominant-baseline="alphabetic">...</text></g><g transform="translate(514.8766666412353 298.50706670548607) rotate(89.9999999999999 16.649999618530273 25.417932531574422)"><text x="0" y="35.625774236254735" font-family="Virgil, Segoe UI Emoji" font-size="40.668692050519105px" fill="#1e1e1e" text-anchor="start" style="white-space: pre;" direction="ltr" dominant-baseline="alphabetic">...</text></g><g transform="translate(10 10) rotate(0 46.57500076293945 15)"><text x="0" y="21.023999999999994" font-family="Virgil, Segoe UI Emoji" font-size="23.999999999999993px" fill="#1e1e1e" text-anchor="start" style="white-space: pre;" direction="ltr" dominant-baseline="alphabetic">v[0][0]</text></g><g transform="translate(555.9466674804687 450) rotate(0 91.57499694824219 15)"><text x="0" y="21.023999999999994" font-family="Virgil, Segoe UI Emoji" font-size="23.999999999999993px" fill="#1e1e1e" text-anchor="start" style="white-space: pre;" direction="ltr" dominant-baseline="alphabetic">v[size-1][size-1]</text></g><g stroke-linecap="round"><g transform="translate(125.52666625976559 23) rotate(0 221.5 2)"><path d="M1.01 1.19 C74.81 1.8, 368.22 2.67, 441.88 3.26 M0.08 0.76 C74.32 1.55, 370.31 4.08, 444 4.42" stroke="#1e1e1e" stroke-width="2" fill="none"></path></g><g transform="translate(125.52666625976559 23) rotate(0 221.5 2)"><path d="M420.45 12.8 C427.66 8.88, 429.67 8.85, 444 4.42 M420.45 12.8 C429.31 10.38, 438.31 7.38, 444 4.42" stroke="#1e1e1e" stroke-width="2" fill="none"></path></g><g transform="translate(125.52666625976559 23) rotate(0 221.5 2)"><path d="M420.57 -4.3 C427.7 -4.44, 429.68 -0.68, 444 4.42 M420.57 -4.3 C429.39 -0.54, 438.35 2.63, 444 4.42" stroke="#1e1e1e" stroke-width="2" fill="none"></path></g></g><mask></mask><g stroke-linecap="round"><g transform="translate(580.5266662597655 52) rotate(0 -0.5 191)"><path d="M0.59 0 C0.7 63.79, -0.05 319.29, -0.47 382.76 M-0.56 -1.05 C-0.46 62.4, -1.31 317.27, -1.13 381.04" stroke="#1e1e1e" stroke-width="2" fill="none"></path></g><g transform="translate(580.5266662597655 52) rotate(0 -0.5 191)"><path d="M-9.67 357.54 C-7.91 363.25, -4.87 365.72, -1.13 381.04 M-9.67 357.54 C-7.58 361.99, -5.66 367.78, -1.13 381.04" stroke="#1e1e1e" stroke-width="2" fill="none"></path></g><g transform="translate(580.5266662597655 52) rotate(0 -0.5 191)"><path d="M7.43 357.55 C5.65 363.34, 5.16 365.81, -1.13 381.04 M7.43 357.55 C6.02 361.91, 4.43 367.7, -1.13 381.04" stroke="#1e1e1e" stroke-width="2" fill="none"></path></g></g><mask></mask><g transform="translate(148.5266662597656 133.5) rotate(0 10.5 -9)" stroke="none"><path fill="#2f9e44" d="M -4.21,-3.01 Q -4.21,-3.01 -2.80,-5.04 -1.39,-7.07 0.54,-9.62 2.47,-12.16 4.57,-14.10 6.67,-16.03 9.30,-17.60 11.93,-19.16 14.36,-20.73 16.78,-22.30 17.66,-22.67 18.53,-23.03 19.48,-23.10 20.43,-23.16 21.35,-22.92 22.28,-22.68 23.07,-22.15 23.87,-21.63 24.45,-20.88 25.04,-20.13 25.36,-19.23 25.67,-18.34 25.69,-17.38 25.70,-16.43 25.41,-15.53 25.12,-14.62 24.55,-13.85 23.99,-13.09 23.20,-12.54 22.42,-12.00 21.51,-11.73 20.60,-11.46 19.65,-11.50 18.70,-11.54 17.81,-11.88 16.92,-12.22 16.18,-12.83 15.45,-13.43 14.95,-14.24 14.45,-15.05 14.23,-15.98 14.01,-16.90 14.10,-17.85 14.19,-18.80 14.58,-19.67 14.96,-20.54 15.61,-21.24 16.25,-21.94 17.09,-22.39 17.92,-22.85 18.86,-23.02 19.80,-23.19 20.74,-23.04 21.68,-22.90 22.53,-22.47 23.38,-22.04 24.04,-21.35 24.70,-20.67 25.12,-19.81 25.53,-18.95 25.64,-18.01 25.76,-17.06 25.57,-16.13 25.38,-15.20 24.90,-14.38 24.42,-13.56 23.70,-12.93 22.98,-12.30 22.98,-12.30 22.98,-12.30 18.69,-9.82 14.39,-7.33 12.54,-6.01 10.69,-4.69 8.91,-2.83 7.14,-0.97 5.68,1.01 4.21,3.01 3.79,3.47 3.37,3.93 2.85,4.28 2.33,4.63 1.74,4.84 1.15,5.05 0.53,5.11 -0.08,5.18 -0.70,5.09 -1.32,5.01 -1.90,4.78 -2.48,4.55 -2.99,4.18 -3.50,3.82 -3.90,3.35 -4.31,2.87 -4.59,2.31 -4.87,1.76 -5.01,1.15 -5.15,0.54 -5.14,-0.08 -5.13,-0.70 -4.97,-1.31 -4.81,-1.91 -4.51,-2.46 -4.21,-3.01 -4.21,-3.01 L -4.21,-3.01 Z"></path></g><g transform="translate(143.5266662597656 107.5) rotate(0 14 14.5)" stroke="none"><path fill="#2f9e44" d="M 2.87,-4.30 Q 2.87,-4.30 4.63,-3.21 6.39,-2.11 9.23,0.36 12.07,2.83 15.36,5.32 18.64,7.81 20.92,10.45 23.19,13.10 25.12,15.81 27.04,18.53 29.46,21.47 31.89,24.41 32.38,25.23 32.88,26.06 33.08,26.99 33.29,27.93 33.18,28.88 33.08,29.84 32.68,30.71 32.28,31.58 31.62,32.28 30.96,32.98 30.11,33.43 29.26,33.87 28.31,34.03 27.37,34.19 26.42,34.03 25.47,33.88 24.62,33.43 23.77,32.98 23.11,32.28 22.45,31.58 22.05,30.71 21.65,29.84 21.54,28.89 21.44,27.93 21.65,26.99 21.85,26.06 22.35,25.23 22.84,24.41 23.57,23.79 24.31,23.17 25.20,22.81 26.09,22.46 27.05,22.41 28.01,22.35 28.93,22.61 29.86,22.87 30.65,23.41 31.44,23.95 32.03,24.71 32.61,25.47 32.91,26.38 33.22,27.29 33.22,28.25 33.22,29.21 32.91,30.12 32.61,31.03 32.03,31.80 31.44,32.56 30.65,33.10 29.86,33.64 28.93,33.89 28.01,34.15 27.05,34.10 26.09,34.05 25.20,33.69 24.31,33.34 23.57,32.71 22.84,32.09 22.84,32.09 22.84,32.09 21.29,30.18 19.74,28.26 17.66,25.26 15.59,22.26 13.86,19.18 12.12,16.09 8.96,13.35 5.80,10.61 3.15,8.66 0.50,6.71 -1.18,5.51 -2.87,4.30 -3.34,3.90 -3.82,3.49 -4.18,2.98 -4.54,2.48 -4.77,1.90 -5.00,1.32 -5.09,0.70 -5.17,0.08 -5.11,-0.53 -5.04,-1.15 -4.83,-1.74 -4.62,-2.33 -4.27,-2.85 -3.93,-3.37 -3.47,-3.79 -3.00,-4.21 -2.46,-4.51 -1.91,-4.81 -1.31,-4.97 -0.70,-5.13 -0.08,-5.14 0.54,-5.15 1.14,-5.01 1.75,-4.87 2.31,-4.58 2.87,-4.30 2.87,-4.30 L 2.87,-4.30 Z"></path></g><g transform="translate(512.5266662597655 219.5) rotate(0 10.5 -9)" stroke="none"><path fill="#2f9e44" d="M -4.21,-3.01 Q -4.21,-3.01 -2.80,-5.04 -1.39,-7.07 0.54,-9.62 2.47,-12.16 4.57,-14.10 6.67,-16.03 9.30,-17.60 11.93,-19.16 14.36,-20.73 16.78,-22.30 17.66,-22.67 18.53,-23.03 19.48,-23.10 20.43,-23.16 21.35,-22.92 22.28,-22.68 23.07,-22.15 23.87,-21.63 24.45,-20.88 25.04,-20.13 25.36,-19.23 25.67,-18.34 25.69,-17.38 25.70,-16.43 25.41,-15.53 25.12,-14.62 24.55,-13.85 23.99,-13.09 23.20,-12.54 22.42,-12.00 21.51,-11.73 20.60,-11.46 19.65,-11.50 18.70,-11.54 17.81,-11.88 16.92,-12.22 16.18,-12.83 15.45,-13.43 14.95,-14.24 14.45,-15.05 14.23,-15.98 14.01,-16.90 14.10,-17.85 14.19,-18.80 14.58,-19.67 14.96,-20.54 15.61,-21.24 16.25,-21.94 17.09,-22.39 17.92,-22.85 18.86,-23.02 19.80,-23.19 20.74,-23.04 21.68,-22.90 22.53,-22.47 23.38,-22.04 24.04,-21.35 24.70,-20.67 25.12,-19.81 25.53,-18.95 25.64,-18.01 25.76,-17.06 25.57,-16.13 25.38,-15.20 24.90,-14.38 24.42,-13.56 23.70,-12.93 22.98,-12.30 22.98,-12.30 22.98,-12.30 18.69,-9.82 14.39,-7.33 12.54,-6.01 10.69,-4.69 8.91,-2.83 7.14,-0.97 5.68,1.01 4.21,3.01 3.79,3.47 3.37,3.93 2.85,4.28 2.33,4.63 1.74,4.84 1.15,5.05 0.53,5.11 -0.08,5.18 -0.70,5.09 -1.32,5.01 -1.90,4.78 -2.48,4.55 -2.99,4.18 -3.50,3.82 -3.90,3.35 -4.31,2.87 -4.59,2.31 -4.87,1.76 -5.01,1.15 -5.15,0.54 -5.14,-0.08 -5.13,-0.70 -4.97,-1.31 -4.81,-1.91 -4.51,-2.46 -4.21,-3.01 -4.21,-3.01 L -4.21,-3.01 Z"></path></g><g transform="translate(507.5266662597656 193.5) rotate(0 14 14.5)" stroke="none"><path fill="#2f9e44" d="M 2.87,-4.30 Q 2.87,-4.30 4.63,-3.21 6.39,-2.11 9.23,0.36 12.07,2.83 15.36,5.32 18.64,7.81 20.92,10.45 23.19,13.10 25.12,15.81 27.04,18.53 29.46,21.47 31.89,24.41 32.38,25.23 32.88,26.06 33.08,26.99 33.29,27.93 33.18,28.88 33.08,29.84 32.68,30.71 32.28,31.58 31.62,32.28 30.96,32.98 30.11,33.43 29.26,33.87 28.31,34.03 27.37,34.19 26.42,34.03 25.47,33.88 24.62,33.43 23.77,32.98 23.11,32.28 22.45,31.58 22.05,30.71 21.65,29.84 21.54,28.89 21.44,27.93 21.65,26.99 21.85,26.06 22.35,25.23 22.84,24.41 23.57,23.79 24.31,23.17 25.20,22.81 26.09,22.46 27.05,22.41 28.01,22.35 28.93,22.61 29.86,22.87 30.65,23.41 31.44,23.95 32.03,24.71 32.61,25.47 32.91,26.38 33.22,27.29 33.22,28.25 33.22,29.21 32.91,30.12 32.61,31.03 32.03,31.80 31.44,32.56 30.65,33.10 29.86,33.64 28.93,33.89 28.01,34.15 27.05,34.10 26.09,34.05 25.20,33.69 24.31,33.34 23.57,32.71 22.84,32.09 22.84,32.09 22.84,32.09 21.29,30.18 19.74,28.26 17.66,25.26 15.59,22.26 13.86,19.18 12.12,16.09 8.96,13.35 5.80,10.61 3.15,8.66 0.50,6.71 -1.18,5.51 -2.87,4.30 -3.34,3.90 -3.82,3.49 -4.18,2.98 -4.54,2.48 -4.77,1.90 -5.00,1.32 -5.09,0.70 -5.17,0.08 -5.11,-0.53 -5.04,-1.15 -4.83,-1.74 -4.62,-2.33 -4.27,-2.85 -3.93,-3.37 -3.47,-3.79 -3.00,-4.21 -2.46,-4.51 -1.91,-4.81 -1.31,-4.97 -0.70,-5.13 -0.08,-5.14 0.54,-5.15 1.14,-5.01 1.75,-4.87 2.31,-4.58 2.87,-4.30 2.87,-4.30 L 2.87,-4.30 Z"></path></g><g transform="translate(218.5266662597656 164.5) rotate(0 10.5 -9)" stroke="none"><path fill="#2f9e44" d="M -4.21,-3.01 Q -4.21,-3.01 -2.80,-5.04 -1.39,-7.07 0.54,-9.62 2.47,-12.16 4.57,-14.10 6.67,-16.03 9.30,-17.60 11.93,-19.16 14.36,-20.73 16.78,-22.30 17.66,-22.67 18.53,-23.03 19.48,-23.10 20.43,-23.16 21.35,-22.92 22.28,-22.68 23.07,-22.15 23.87,-21.63 24.45,-20.88 25.04,-20.13 25.36,-19.23 25.67,-18.34 25.69,-17.38 25.70,-16.43 25.41,-15.53 25.12,-14.62 24.55,-13.85 23.99,-13.09 23.20,-12.54 22.42,-12.00 21.51,-11.73 20.60,-11.46 19.65,-11.50 18.70,-11.54 17.81,-11.88 16.92,-12.22 16.18,-12.83 15.45,-13.43 14.95,-14.24 14.45,-15.05 14.23,-15.98 14.01,-16.90 14.10,-17.85 14.19,-18.80 14.58,-19.67 14.96,-20.54 15.61,-21.24 16.25,-21.94 17.09,-22.39 17.92,-22.85 18.86,-23.02 19.80,-23.19 20.74,-23.04 21.68,-22.90 22.53,-22.47 23.38,-22.04 24.04,-21.35 24.70,-20.67 25.12,-19.81 25.53,-18.95 25.64,-18.01 25.76,-17.06 25.57,-16.13 25.38,-15.20 24.90,-14.38 24.42,-13.56 23.70,-12.93 22.98,-12.30 22.98,-12.30 22.98,-12.30 18.69,-9.82 14.39,-7.33 12.54,-6.01 10.69,-4.69 8.91,-2.83 7.14,-0.97 5.68,1.01 4.21,3.01 3.79,3.47 3.37,3.93 2.85,4.28 2.33,4.63 1.74,4.84 1.15,5.05 0.53,5.11 -0.08,5.18 -0.70,5.09 -1.32,5.01 -1.90,4.78 -2.48,4.55 -2.99,4.18 -3.50,3.82 -3.90,3.35 -4.31,2.87 -4.59,2.31 -4.87,1.76 -5.01,1.15 -5.15,0.54 -5.14,-0.08 -5.13,-0.70 -4.97,-1.31 -4.81,-1.91 -4.51,-2.46 -4.21,-3.01 -4.21,-3.01 L -4.21,-3.01 Z"></path></g><g transform="translate(213.5266662597656 138.5) rotate(0 14 14.5)" stroke="none"><path fill="#2f9e44" d="M 2.87,-4.30 Q 2.87,-4.30 4.63,-3.21 6.39,-2.11 9.23,0.36 12.07,2.83 15.36,5.32 18.64,7.81 20.92,10.45 23.19,13.10 25.12,15.81 27.04,18.53 29.46,21.47 31.89,24.41 32.38,25.23 32.88,26.06 33.08,26.99 33.29,27.93 33.18,28.88 33.08,29.84 32.68,30.71 32.28,31.58 31.62,32.28 30.96,32.98 30.11,33.43 29.26,33.87 28.31,34.03 27.37,34.19 26.42,34.03 25.47,33.88 24.62,33.43 23.77,32.98 23.11,32.28 22.45,31.58 22.05,30.71 21.65,29.84 21.54,28.89 21.44,27.93 21.65,26.99 21.85,26.06 22.35,25.23 22.84,24.41 23.57,23.79 24.31,23.17 25.20,22.81 26.09,22.46 27.05,22.41 28.01,22.35 28.93,22.61 29.86,22.87 30.65,23.41 31.44,23.95 32.03,24.71 32.61,25.47 32.91,26.38 33.22,27.29 33.22,28.25 33.22,29.21 32.91,30.12 32.61,31.03 32.03,31.80 31.44,32.56 30.65,33.10 29.86,33.64 28.93,33.89 28.01,34.15 27.05,34.10 26.09,34.05 25.20,33.69 24.31,33.34 23.57,32.71 22.84,32.09 22.84,32.09 22.84,32.09 21.29,30.18 19.74,28.26 17.66,25.26 15.59,22.26 13.86,19.18 12.12,16.09 8.96,13.35 5.80,10.61 3.15,8.66 0.50,6.71 -1.18,5.51 -2.87,4.30 -3.34,3.90 -3.82,3.49 -4.18,2.98 -4.54,2.48 -4.77,1.90 -5.00,1.32 -5.09,0.70 -5.17,0.08 -5.11,-0.53 -5.04,-1.15 -4.83,-1.74 -4.62,-2.33 -4.27,-2.85 -3.93,-3.37 -3.47,-3.79 -3.00,-4.21 -2.46,-4.51 -1.91,-4.81 -1.31,-4.97 -0.70,-5.13 -0.08,-5.14 0.54,-5.15 1.14,-5.01 1.75,-4.87 2.31,-4.58 2.87,-4.30 2.87,-4.30 L 2.87,-4.30 Z"></path></g><g transform="translate(342.5266662597656 365.5) rotate(0 10.5 -9)" stroke="none"><path fill="#2f9e44" d="M -4.21,-3.01 Q -4.21,-3.01 -2.80,-5.04 -1.39,-7.07 0.54,-9.62 2.47,-12.16 4.57,-14.10 6.67,-16.03 9.30,-17.60 11.93,-19.16 14.36,-20.73 16.78,-22.30 17.66,-22.67 18.53,-23.03 19.48,-23.10 20.43,-23.16 21.35,-22.92 22.28,-22.68 23.07,-22.15 23.87,-21.63 24.45,-20.88 25.04,-20.13 25.36,-19.23 25.67,-18.34 25.69,-17.38 25.70,-16.43 25.41,-15.53 25.12,-14.62 24.55,-13.85 23.99,-13.09 23.20,-12.54 22.42,-12.00 21.51,-11.73 20.60,-11.46 19.65,-11.50 18.70,-11.54 17.81,-11.88 16.92,-12.22 16.18,-12.83 15.45,-13.43 14.95,-14.24 14.45,-15.05 14.23,-15.98 14.01,-16.90 14.10,-17.85 14.19,-18.80 14.58,-19.67 14.96,-20.54 15.61,-21.24 16.25,-21.94 17.09,-22.39 17.92,-22.85 18.86,-23.02 19.80,-23.19 20.74,-23.04 21.68,-22.90 22.53,-22.47 23.38,-22.04 24.04,-21.35 24.70,-20.67 25.12,-19.81 25.53,-18.95 25.64,-18.01 25.76,-17.06 25.57,-16.13 25.38,-15.20 24.90,-14.38 24.42,-13.56 23.70,-12.93 22.98,-12.30 22.98,-12.30 22.98,-12.30 18.69,-9.82 14.39,-7.33 12.54,-6.01 10.69,-4.69 8.91,-2.83 7.14,-0.97 5.68,1.01 4.21,3.01 3.79,3.47 3.37,3.93 2.85,4.28 2.33,4.63 1.74,4.84 1.15,5.05 0.53,5.11 -0.08,5.18 -0.70,5.09 -1.32,5.01 -1.90,4.78 -2.48,4.55 -2.99,4.18 -3.50,3.82 -3.90,3.35 -4.31,2.87 -4.59,2.31 -4.87,1.76 -5.01,1.15 -5.15,0.54 -5.14,-0.08 -5.13,-0.70 -4.97,-1.31 -4.81,-1.91 -4.51,-2.46 -4.21,-3.01 -4.21,-3.01 L -4.21,-3.01 Z"></path></g><g transform="translate(337.5266662597656 339.5) rotate(0 14 14.5)" stroke="none"><path fill="#2f9e44" d="M 2.87,-4.30 Q 2.87,-4.30 4.63,-3.21 6.39,-2.11 9.23,0.36 12.07,2.83 15.36,5.32 18.64,7.81 20.92,10.45 23.19,13.10 25.12,15.81 27.04,18.53 29.46,21.47 31.89,24.41 32.38,25.23 32.88,26.06 33.08,26.99 33.29,27.93 33.18,28.88 33.08,29.84 32.68,30.71 32.28,31.58 31.62,32.28 30.96,32.98 30.11,33.43 29.26,33.87 28.31,34.03 27.37,34.19 26.42,34.03 25.47,33.88 24.62,33.43 23.77,32.98 23.11,32.28 22.45,31.58 22.05,30.71 21.65,29.84 21.54,28.89 21.44,27.93 21.65,26.99 21.85,26.06 22.35,25.23 22.84,24.41 23.57,23.79 24.31,23.17 25.20,22.81 26.09,22.46 27.05,22.41 28.01,22.35 28.93,22.61 29.86,22.87 30.65,23.41 31.44,23.95 32.03,24.71 32.61,25.47 32.91,26.38 33.22,27.29 33.22,28.25 33.22,29.21 32.91,30.12 32.61,31.03 32.03,31.80 31.44,32.56 30.65,33.10 29.86,33.64 28.93,33.89 28.01,34.15 27.05,34.10 26.09,34.05 25.20,33.69 24.31,33.34 23.57,32.71 22.84,32.09 22.84,32.09 22.84,32.09 21.29,30.18 19.74,28.26 17.66,25.26 15.59,22.26 13.86,19.18 12.12,16.09 8.96,13.35 5.80,10.61 3.15,8.66 0.50,6.71 -1.18,5.51 -2.87,4.30 -3.34,3.90 -3.82,3.49 -4.18,2.98 -4.54,2.48 -4.77,1.90 -5.00,1.32 -5.09,0.70 -5.17,0.08 -5.11,-0.53 -5.04,-1.15 -4.83,-1.74 -4.62,-2.33 -4.27,-2.85 -3.93,-3.37 -3.47,-3.79 -3.00,-4.21 -2.46,-4.51 -1.91,-4.81 -1.31,-4.97 -0.70,-5.13 -0.08,-5.14 0.54,-5.15 1.14,-5.01 1.75,-4.87 2.31,-4.58 2.87,-4.30 2.87,-4.30 L 2.87,-4.30 Z"></path></g><g transform="translate(403.5266662597656 216.5) rotate(0 10.5 -9)" stroke="none"><path fill="#2f9e44" d="M -4.21,-3.01 Q -4.21,-3.01 -2.80,-5.04 -1.39,-7.07 0.54,-9.62 2.47,-12.16 4.57,-14.10 6.67,-16.03 9.30,-17.60 11.93,-19.16 14.36,-20.73 16.78,-22.30 17.66,-22.67 18.53,-23.03 19.48,-23.10 20.43,-23.16 21.35,-22.92 22.28,-22.68 23.07,-22.15 23.87,-21.63 24.45,-20.88 25.04,-20.13 25.36,-19.23 25.67,-18.34 25.69,-17.38 25.70,-16.43 25.41,-15.53 25.12,-14.62 24.55,-13.85 23.99,-13.09 23.20,-12.54 22.42,-12.00 21.51,-11.73 20.60,-11.46 19.65,-11.50 18.70,-11.54 17.81,-11.88 16.92,-12.22 16.18,-12.83 15.45,-13.43 14.95,-14.24 14.45,-15.05 14.23,-15.98 14.01,-16.90 14.10,-17.85 14.19,-18.80 14.58,-19.67 14.96,-20.54 15.61,-21.24 16.25,-21.94 17.09,-22.39 17.92,-22.85 18.86,-23.02 19.80,-23.19 20.74,-23.04 21.68,-22.90 22.53,-22.47 23.38,-22.04 24.04,-21.35 24.70,-20.67 25.12,-19.81 25.53,-18.95 25.64,-18.01 25.76,-17.06 25.57,-16.13 25.38,-15.20 24.90,-14.38 24.42,-13.56 23.70,-12.93 22.98,-12.30 22.98,-12.30 22.98,-12.30 18.69,-9.82 14.39,-7.33 12.54,-6.01 10.69,-4.69 8.91,-2.83 7.14,-0.97 5.68,1.01 4.21,3.01 3.79,3.47 3.37,3.93 2.85,4.28 2.33,4.63 1.74,4.84 1.15,5.05 0.53,5.11 -0.08,5.18 -0.70,5.09 -1.32,5.01 -1.90,4.78 -2.48,4.55 -2.99,4.18 -3.50,3.82 -3.90,3.35 -4.31,2.87 -4.59,2.31 -4.87,1.76 -5.01,1.15 -5.15,0.54 -5.14,-0.08 -5.13,-0.70 -4.97,-1.31 -4.81,-1.91 -4.51,-2.46 -4.21,-3.01 -4.21,-3.01 L -4.21,-3.01 Z"></path></g><g transform="translate(398.5266662597656 190.5) rotate(0 14 14.5)" stroke="none"><path fill="#2f9e44" d="M 2.87,-4.30 Q 2.87,-4.30 4.63,-3.21 6.39,-2.11 9.23,0.36 12.07,2.83 15.36,5.32 18.64,7.81 20.92,10.45 23.19,13.10 25.12,15.81 27.04,18.53 29.46,21.47 31.89,24.41 32.38,25.23 32.88,26.06 33.08,26.99 33.29,27.93 33.18,28.88 33.08,29.84 32.68,30.71 32.28,31.58 31.62,32.28 30.96,32.98 30.11,33.43 29.26,33.87 28.31,34.03 27.37,34.19 26.42,34.03 25.47,33.88 24.62,33.43 23.77,32.98 23.11,32.28 22.45,31.58 22.05,30.71 21.65,29.84 21.54,28.89 21.44,27.93 21.65,26.99 21.85,26.06 22.35,25.23 22.84,24.41 23.57,23.79 24.31,23.17 25.20,22.81 26.09,22.46 27.05,22.41 28.01,22.35 28.93,22.61 29.86,22.87 30.65,23.41 31.44,23.95 32.03,24.71 32.61,25.47 32.91,26.38 33.22,27.29 33.22,28.25 33.22,29.21 32.91,30.12 32.61,31.03 32.03,31.80 31.44,32.56 30.65,33.10 29.86,33.64 28.93,33.89 28.01,34.15 27.05,34.10 26.09,34.05 25.20,33.69 24.31,33.34 23.57,32.71 22.84,32.09 22.84,32.09 22.84,32.09 21.29,30.18 19.74,28.26 17.66,25.26 15.59,22.26 13.86,19.18 12.12,16.09 8.96,13.35 5.80,10.61 3.15,8.66 0.50,6.71 -1.18,5.51 -2.87,4.30 -3.34,3.90 -3.82,3.49 -4.18,2.98 -4.54,2.48 -4.77,1.90 -5.00,1.32 -5.09,0.70 -5.17,0.08 -5.11,-0.53 -5.04,-1.15 -4.83,-1.74 -4.62,-2.33 -4.27,-2.85 -3.93,-3.37 -3.47,-3.79 -3.00,-4.21 -2.46,-4.51 -1.91,-4.81 -1.31,-4.97 -0.70,-5.13 -0.08,-5.14 0.54,-5.15 1.14,-5.01 1.75,-4.87 2.31,-4.58 2.87,-4.30 2.87,-4.30 L 2.87,-4.30 Z"></path></g><g transform="translate(183.5266662597656 438.5) rotate(0 10.5 -9)" stroke="none"><path fill="#2f9e44" d="M -4.21,-3.01 Q -4.21,-3.01 -2.80,-5.04 -1.39,-7.07 0.54,-9.62 2.47,-12.16 4.57,-14.10 6.67,-16.03 9.30,-17.60 11.93,-19.16 14.36,-20.73 16.78,-22.30 17.66,-22.67 18.53,-23.03 19.48,-23.10 20.43,-23.16 21.35,-22.92 22.28,-22.68 23.07,-22.15 23.87,-21.63 24.45,-20.88 25.04,-20.13 25.36,-19.23 25.67,-18.34 25.69,-17.38 25.70,-16.43 25.41,-15.53 25.12,-14.62 24.55,-13.85 23.99,-13.09 23.20,-12.54 22.42,-12.00 21.51,-11.73 20.60,-11.46 19.65,-11.50 18.70,-11.54 17.81,-11.88 16.92,-12.22 16.18,-12.83 15.45,-13.43 14.95,-14.24 14.45,-15.05 14.23,-15.98 14.01,-16.90 14.10,-17.85 14.19,-18.80 14.58,-19.67 14.96,-20.54 15.61,-21.24 16.25,-21.94 17.09,-22.39 17.92,-22.85 18.86,-23.02 19.80,-23.19 20.74,-23.04 21.68,-22.90 22.53,-22.47 23.38,-22.04 24.04,-21.35 24.70,-20.67 25.12,-19.81 25.53,-18.95 25.64,-18.01 25.76,-17.06 25.57,-16.13 25.38,-15.20 24.90,-14.38 24.42,-13.56 23.70,-12.93 22.98,-12.30 22.98,-12.30 22.98,-12.30 18.69,-9.82 14.39,-7.33 12.54,-6.01 10.69,-4.69 8.91,-2.83 7.14,-0.97 5.68,1.01 4.21,3.01 3.79,3.47 3.37,3.93 2.85,4.28 2.33,4.63 1.74,4.84 1.15,5.05 0.53,5.11 -0.08,5.18 -0.70,5.09 -1.32,5.01 -1.90,4.78 -2.48,4.55 -2.99,4.18 -3.50,3.82 -3.90,3.35 -4.31,2.87 -4.59,2.31 -4.87,1.76 -5.01,1.15 -5.15,0.54 -5.14,-0.08 -5.13,-0.70 -4.97,-1.31 -4.81,-1.91 -4.51,-2.46 -4.21,-3.01 -4.21,-3.01 L -4.21,-3.01 Z"></path></g><g transform="translate(178.5266662597656 412.5) rotate(0 14 14.5)" stroke="none"><path fill="#2f9e44" d="M 2.87,-4.30 Q 2.87,-4.30 4.63,-3.21 6.39,-2.11 9.23,0.36 12.07,2.83 15.36,5.32 18.64,7.81 20.92,10.45 23.19,13.10 25.12,15.81 27.04,18.53 29.46,21.47 31.89,24.41 32.38,25.23 32.88,26.06 33.08,26.99 33.29,27.93 33.18,28.88 33.08,29.84 32.68,30.71 32.28,31.58 31.62,32.28 30.96,32.98 30.11,33.43 29.26,33.87 28.31,34.03 27.37,34.19 26.42,34.03 25.47,33.88 24.62,33.43 23.77,32.98 23.11,32.28 22.45,31.58 22.05,30.71 21.65,29.84 21.54,28.89 21.44,27.93 21.65,26.99 21.85,26.06 22.35,25.23 22.84,24.41 23.57,23.79 24.31,23.17 25.20,22.81 26.09,22.46 27.05,22.41 28.01,22.35 28.93,22.61 29.86,22.87 30.65,23.41 31.44,23.95 32.03,24.71 32.61,25.47 32.91,26.38 33.22,27.29 33.22,28.25 33.22,29.21 32.91,30.12 32.61,31.03 32.03,31.80 31.44,32.56 30.65,33.10 29.86,33.64 28.93,33.89 28.01,34.15 27.05,34.10 26.09,34.05 25.20,33.69 24.31,33.34 23.57,32.71 22.84,32.09 22.84,32.09 22.84,32.09 21.29,30.18 19.74,28.26 17.66,25.26 15.59,22.26 13.86,19.18 12.12,16.09 8.96,13.35 5.80,10.61 3.15,8.66 0.50,6.71 -1.18,5.51 -2.87,4.30 -3.34,3.90 -3.82,3.49 -4.18,2.98 -4.54,2.48 -4.77,1.90 -5.00,1.32 -5.09,0.70 -5.17,0.08 -5.11,-0.53 -5.04,-1.15 -4.83,-1.74 -4.62,-2.33 -4.27,-2.85 -3.93,-3.37 -3.47,-3.79 -3.00,-4.21 -2.46,-4.51 -1.91,-4.81 -1.31,-4.97 -0.70,-5.13 -0.08,-5.14 0.54,-5.15 1.14,-5.01 1.75,-4.87 2.31,-4.58 2.87,-4.30 2.87,-4.30 L 2.87,-4.30 Z"></path></g><g transform="translate(249.5266662597656 302.5) rotate(0 10.5 -9)" stroke="none"><path fill="#2f9e44" d="M -4.21,-3.01 Q -4.21,-3.01 -2.80,-5.04 -1.39,-7.07 0.54,-9.62 2.47,-12.16 4.57,-14.10 6.67,-16.03 9.30,-17.60 11.93,-19.16 14.36,-20.73 16.78,-22.30 17.66,-22.67 18.53,-23.03 19.48,-23.10 20.43,-23.16 21.35,-22.92 22.28,-22.68 23.07,-22.15 23.87,-21.63 24.45,-20.88 25.04,-20.13 25.36,-19.23 25.67,-18.34 25.69,-17.38 25.70,-16.43 25.41,-15.53 25.12,-14.62 24.55,-13.85 23.99,-13.09 23.20,-12.54 22.42,-12.00 21.51,-11.73 20.60,-11.46 19.65,-11.50 18.70,-11.54 17.81,-11.88 16.92,-12.22 16.18,-12.83 15.45,-13.43 14.95,-14.24 14.45,-15.05 14.23,-15.98 14.01,-16.90 14.10,-17.85 14.19,-18.80 14.58,-19.67 14.96,-20.54 15.61,-21.24 16.25,-21.94 17.09,-22.39 17.92,-22.85 18.86,-23.02 19.80,-23.19 20.74,-23.04 21.68,-22.90 22.53,-22.47 23.38,-22.04 24.04,-21.35 24.70,-20.67 25.12,-19.81 25.53,-18.95 25.64,-18.01 25.76,-17.06 25.57,-16.13 25.38,-15.20 24.90,-14.38 24.42,-13.56 23.70,-12.93 22.98,-12.30 22.98,-12.30 22.98,-12.30 18.69,-9.82 14.39,-7.33 12.54,-6.01 10.69,-4.69 8.91,-2.83 7.14,-0.97 5.68,1.01 4.21,3.01 3.79,3.47 3.37,3.93 2.85,4.28 2.33,4.63 1.74,4.84 1.15,5.05 0.53,5.11 -0.08,5.18 -0.70,5.09 -1.32,5.01 -1.90,4.78 -2.48,4.55 -2.99,4.18 -3.50,3.82 -3.90,3.35 -4.31,2.87 -4.59,2.31 -4.87,1.76 -5.01,1.15 -5.15,0.54 -5.14,-0.08 -5.13,-0.70 -4.97,-1.31 -4.81,-1.91 -4.51,-2.46 -4.21,-3.01 -4.21,-3.01 L -4.21,-3.01 Z"></path></g><g transform="translate(245.5266662597656 276.5) rotate(0 14 14.5)" stroke="none"><path fill="#2f9e44" d="M 2.87,-4.30 Q 2.87,-4.30 4.63,-3.21 6.39,-2.11 9.23,0.36 12.07,2.83 15.36,5.32 18.64,7.81 20.92,10.45 23.19,13.10 25.12,15.81 27.04,18.53 29.46,21.47 31.89,24.41 32.38,25.23 32.88,26.06 33.08,26.99 33.29,27.93 33.18,28.88 33.08,29.84 32.68,30.71 32.28,31.58 31.62,32.28 30.96,32.98 30.11,33.43 29.26,33.87 28.31,34.03 27.37,34.19 26.42,34.03 25.47,33.88 24.62,33.43 23.77,32.98 23.11,32.28 22.45,31.58 22.05,30.71 21.65,29.84 21.54,28.89 21.44,27.93 21.65,26.99 21.85,26.06 22.35,25.23 22.84,24.41 23.57,23.79 24.31,23.17 25.20,22.81 26.09,22.46 27.05,22.41 28.01,22.35 28.93,22.61 29.86,22.87 30.65,23.41 31.44,23.95 32.03,24.71 32.61,25.47 32.91,26.38 33.22,27.29 33.22,28.25 33.22,29.21 32.91,30.12 32.61,31.03 32.03,31.80 31.44,32.56 30.65,33.10 29.86,33.64 28.93,33.89 28.01,34.15 27.05,34.10 26.09,34.05 25.20,33.69 24.31,33.34 23.57,32.71 22.84,32.09 22.84,32.09 22.84,32.09 21.29,30.18 19.74,28.26 17.66,25.26 15.59,22.26 13.86,19.18 12.12,16.09 8.96,13.35 5.80,10.61 3.15,8.66 0.50,6.71 -1.18,5.51 -2.87,4.30 -3.34,3.90 -3.82,3.49 -4.18,2.98 -4.54,2.48 -4.77,1.90 -5.00,1.32 -5.09,0.70 -5.17,0.08 -5.11,-0.53 -5.04,-1.15 -4.83,-1.74 -4.62,-2.33 -4.27,-2.85 -3.93,-3.37 -3.47,-3.79 -3.00,-4.21 -2.46,-4.51 -1.91,-4.81 -1.31,-4.97 -0.70,-5.13 -0.08,-5.14 0.54,-5.15 1.14,-5.01 1.75,-4.87 2.31,-4.58 2.87,-4.30 2.87,-4.30 L 2.87,-4.30 Z"></path></g><g transform="translate(295.5266662597656 106.5) rotate(0 10.5 -9)" stroke="none"><path fill="#2f9e44" d="M -4.21,-3.01 Q -4.21,-3.01 -2.80,-5.04 -1.39,-7.07 0.54,-9.62 2.47,-12.16 4.57,-14.10 6.67,-16.03 9.30,-17.60 11.93,-19.16 14.36,-20.73 16.78,-22.30 17.66,-22.67 18.53,-23.03 19.48,-23.10 20.43,-23.16 21.35,-22.92 22.28,-22.68 23.07,-22.15 23.87,-21.63 24.45,-20.88 25.04,-20.13 25.36,-19.23 25.67,-18.34 25.69,-17.38 25.70,-16.43 25.41,-15.53 25.12,-14.62 24.55,-13.85 23.99,-13.09 23.20,-12.54 22.42,-12.00 21.51,-11.73 20.60,-11.46 19.65,-11.50 18.70,-11.54 17.81,-11.88 16.92,-12.22 16.18,-12.83 15.45,-13.43 14.95,-14.24 14.45,-15.05 14.23,-15.98 14.01,-16.90 14.10,-17.85 14.19,-18.80 14.58,-19.67 14.96,-20.54 15.61,-21.24 16.25,-21.94 17.09,-22.39 17.92,-22.85 18.86,-23.02 19.80,-23.19 20.74,-23.04 21.68,-22.90 22.53,-22.47 23.38,-22.04 24.04,-21.35 24.70,-20.67 25.12,-19.81 25.53,-18.95 25.64,-18.01 25.76,-17.06 25.57,-16.13 25.38,-15.20 24.90,-14.38 24.42,-13.56 23.70,-12.93 22.98,-12.30 22.98,-12.30 22.98,-12.30 18.69,-9.82 14.39,-7.33 12.54,-6.01 10.69,-4.69 8.91,-2.83 7.14,-0.97 5.68,1.01 4.21,3.01 3.79,3.47 3.37,3.93 2.85,4.28 2.33,4.63 1.74,4.84 1.15,5.05 0.53,5.11 -0.08,5.18 -0.70,5.09 -1.32,5.01 -1.90,4.78 -2.48,4.55 -2.99,4.18 -3.50,3.82 -3.90,3.35 -4.31,2.87 -4.59,2.31 -4.87,1.76 -5.01,1.15 -5.15,0.54 -5.14,-0.08 -5.13,-0.70 -4.97,-1.31 -4.81,-1.91 -4.51,-2.46 -4.21,-3.01 -4.21,-3.01 L -4.21,-3.01 Z"></path></g><g transform="translate(290.5266662597656 80.5) rotate(0 14 14.5)" stroke="none"><path fill="#2f9e44" d="M 2.87,-4.30 Q 2.87,-4.30 4.63,-3.21 6.39,-2.11 9.23,0.36 12.07,2.83 15.36,5.32 18.64,7.81 20.92,10.45 23.19,13.10 25.12,15.81 27.04,18.53 29.46,21.47 31.89,24.41 32.38,25.23 32.88,26.06 33.08,26.99 33.29,27.93 33.18,28.88 33.08,29.84 32.68,30.71 32.28,31.58 31.62,32.28 30.96,32.98 30.11,33.43 29.26,33.87 28.31,34.03 27.37,34.19 26.42,34.03 25.47,33.88 24.62,33.43 23.77,32.98 23.11,32.28 22.45,31.58 22.05,30.71 21.65,29.84 21.54,28.89 21.44,27.93 21.65,26.99 21.85,26.06 22.35,25.23 22.84,24.41 23.57,23.79 24.31,23.17 25.20,22.81 26.09,22.46 27.05,22.41 28.01,22.35 28.93,22.61 29.86,22.87 30.65,23.41 31.44,23.95 32.03,24.71 32.61,25.47 32.91,26.38 33.22,27.29 33.22,28.25 33.22,29.21 32.91,30.12 32.61,31.03 32.03,31.80 31.44,32.56 30.65,33.10 29.86,33.64 28.93,33.89 28.01,34.15 27.05,34.10 26.09,34.05 25.20,33.69 24.31,33.34 23.57,32.71 22.84,32.09 22.84,32.09 22.84,32.09 21.29,30.18 19.74,28.26 17.66,25.26 15.59,22.26 13.86,19.18 12.12,16.09 8.96,13.35 5.80,10.61 3.15,8.66 0.50,6.71 -1.18,5.51 -2.87,4.30 -3.34,3.90 -3.82,3.49 -4.18,2.98 -4.54,2.48 -4.77,1.90 -5.00,1.32 -5.09,0.70 -5.17,0.08 -5.11,-0.53 -5.04,-1.15 -4.83,-1.74 -4.62,-2.33 -4.27,-2.85 -3.93,-3.37 -3.47,-3.79 -3.00,-4.21 -2.46,-4.51 -1.91,-4.81 -1.31,-4.97 -0.70,-5.13 -0.08,-5.14 0.54,-5.15 1.14,-5.01 1.75,-4.87 2.31,-4.58 2.87,-4.30 2.87,-4.30 L 2.87,-4.30 Z"></path></g></svg>